<?xml version="1.0" encoding="UTF-8" standalone="no"?>
<!-- Created with Inkscape (http://www.inkscape.org/) -->

<svg
   version="1.1"
   id="svg2"
   xml:space="preserve"
   width="1122.5187"
   height="793.69867"
   viewBox="0 0 1122.5187 793.69867"
   sodipodi:docname="krets2.svg"
   inkscape:version="1.1.2 (0a00cf5339, 2022-02-04)"
   xmlns:inkscape="http://www.inkscape.org/namespaces/inkscape"
   xmlns:sodipodi="http://sodipodi.sourceforge.net/DTD/sodipodi-0.dtd"
   xmlns="http://www.w3.org/2000/svg"
   xmlns:svg="http://www.w3.org/2000/svg"><defs
     id="defs6"><rect
       x="784.83076"
       y="172.82312"
       width="145.20705"
       height="40.087837"
       id="rect63883" /><rect
       x="405.33257"
       y="101.55585"
       width="229.83693"
       height="96.210808"
       id="rect11485" /><clipPath
       clipPathUnits="userSpaceOnUse"
       id="clipPath40"><path
         d="M 0,595.274 H 841.889 V 0 H 0 Z"
         id="path38" /></clipPath><rect
       x="405.33258"
       y="101.55585"
       width="229.83693"
       height="96.210808"
       id="rect11485-7" /><rect
       x="405.33258"
       y="101.55585"
       width="229.83693"
       height="96.210808"
       id="rect11485-7-4" /><rect
       x="405.33258"
       y="101.55585"
       width="229.83693"
       height="96.210808"
       id="rect11485-7-4-2" /></defs><sodipodi:namedview
     id="namedview4"
     pagecolor="#ffffff"
     bordercolor="#666666"
     borderopacity="1.0"
     inkscape:pageshadow="2"
     inkscape:pageopacity="0.0"
     inkscape:pagecheckerboard="0"
     showgrid="false"
     inkscape:zoom="1.122535"
     inkscape:cx="554.10299"
     inkscape:cy="443.63872"
     inkscape:window-width="2560"
     inkscape:window-height="1367"
     inkscape:window-x="0"
     inkscape:window-y="0"
     inkscape:window-maximized="1"
     inkscape:current-layer="g36" /><g
     id="g8"
     inkscape:groupmode="layer"
     inkscape:label="1"
     transform="matrix(1.3333333,0,0,-1.3333333,0,793.69867)"><g
       id="g10"
       transform="translate(297.2881,118.9586)"><path
         d="M 0,0 V -49.607 H 482.162 V 232.711 H 245.061 v 22.876"
         style="fill:none;stroke:#ed1c24;stroke-width:2;stroke-linecap:butt;stroke-linejoin:miter;stroke-miterlimit:10;stroke-dasharray:none;stroke-opacity:1"
         id="path12" /></g><g
       id="g14"
       transform="translate(307.9288,118.6109)"><path
         d="m 0,0 v -38.76 h 311.38059 3.83857 142.80184 v 259.339 h -268.96 v 34.957"
         style="fill:none;stroke:#ed1c24;stroke-width:2;stroke-linecap:butt;stroke-linejoin:miter;stroke-miterlimit:10;stroke-dasharray:none;stroke-opacity:1"
         id="path16"
         sodipodi:nodetypes="cccccccc" /></g><g
       id="g18"
       transform="translate(615.1295,229.3306)"><path
         d="M 0,0 V 76.251 L -217.537,75.307 H -543.465 V -96.348 h 24.857"
         style="fill:none;stroke:#ed1c24;stroke-width:2;stroke-linecap:butt;stroke-linejoin:miter;stroke-miterlimit:10;stroke-dasharray:none;stroke-opacity:1"
         id="path20" /></g><g
       id="g22"
       transform="translate(333.4278,236.4449)"><path
         d="M 0,0 H 192.575 V -7.114"
         style="fill:none;stroke:#ed1c24;stroke-width:2;stroke-linecap:butt;stroke-linejoin:miter;stroke-miterlimit:10;stroke-dasharray:none;stroke-opacity:1"
         id="path24" /></g><g
       id="g26"
       transform="translate(314.316,383.501)"><path
         d="M 0,0 H 36.027 V -43.507 H -117.81 v -55.807"
         style="fill:none;stroke:#ed1c24;stroke-width:2;stroke-linecap:butt;stroke-linejoin:miter;stroke-miterlimit:10;stroke-dasharray:none;stroke-opacity:1"
         id="path28" /></g><g
       id="g30"
       transform="translate(208.3536,284.816)"><path
         d="M 0,0 V 41.244 H 154.954 V 99.188 H 105.972"
         style="fill:none;stroke:#ed1c24;stroke-width:2;stroke-linecap:butt;stroke-linejoin:miter;stroke-miterlimit:10;stroke-dasharray:none;stroke-opacity:1"
         id="path32" /></g><g
       id="g34"><g
         id="g36"
         clip-path="url(#clipPath40)"><g
           id="g42"
           transform="translate(286.209,374.7086)"><path
             d="m 0,0 h -181.807 c -2.71,0 -4.928,2.218 -4.928,4.929 v 155.357 c 0,2.711 2.218,4.928 4.928,4.928 H 0 c 2.711,0 4.929,-2.217 4.929,-4.928 V 4.929 C 4.929,2.218 2.711,0 0,0 Z"
             style="fill:none;stroke:#000000;stroke-width:1.544;stroke-linecap:butt;stroke-linejoin:miter;stroke-miterlimit:10;stroke-dasharray:none;stroke-opacity:1"
             id="path44" /></g><path
           d="M 277.875,405.907 H 112.156 v 124.846 h 165.719 z"
           style="fill:none;stroke:#000000;stroke-width:1.544;stroke-linecap:butt;stroke-linejoin:miter;stroke-miterlimit:10;stroke-dasharray:none;stroke-opacity:1"
           id="path46" /><g
           id="g48"
           transform="translate(99.4742,398.7584)"><path
             d="M 0,0 H 191.664"
             style="fill:none;stroke:#000000;stroke-width:1.544;stroke-linecap:butt;stroke-linejoin:miter;stroke-miterlimit:10;stroke-dasharray:none;stroke-opacity:1"
             id="path50" /></g><g
           id="g52"
           transform="translate(291.1378,388.3882)"><path
             d="m 0,0 h 13.073 c 1.001,0 1.819,-0.819 1.819,-1.819 v -5.154 c 0,-1 -0.818,-1.819 -1.819,-1.819 H 0"
             style="fill:none;stroke:#000000;stroke-width:1.544;stroke-linecap:butt;stroke-linejoin:miter;stroke-miterlimit:10;stroke-dasharray:none;stroke-opacity:1"
             id="path54" /></g><path
           d="m 309.706,381.277 h -3.676 v 5.002 h 3.676 z"
           style="fill:none;stroke:#000000;stroke-width:1.544;stroke-linecap:butt;stroke-linejoin:miter;stroke-miterlimit:10;stroke-dasharray:none;stroke-opacity:1"
           id="path56" /><path
           d="m 312.905,382.035 h -3.199 v 3.436 h 3.199 z"
           style="fill:none;stroke:#000000;stroke-width:1.544;stroke-linecap:butt;stroke-linejoin:miter;stroke-miterlimit:10;stroke-dasharray:none;stroke-opacity:1"
           id="path58" /><g
           id="g60"
           transform="translate(312.9048,381.5294)"><path
             d="m 0,0 v 0 4.547 c 0.6,0 1.086,-0.486 1.086,-1.086 V 1.086 C 1.086,0.486 0.6,0 0,0 Z"
             style="fill:none;stroke:#000000;stroke-width:1.544;stroke-linecap:butt;stroke-linejoin:miter;stroke-miterlimit:10;stroke-dasharray:none;stroke-opacity:1"
             id="path62" /></g><g
           id="g64"
           transform="translate(242.7042,234.9517)"><path
             d="m 0,0 h 5.009 c 0.921,0 0.923,1.432 0,1.432 H 0 C -0.921,1.432 -0.922,0 0,0"
             style="fill:#ffffff;fill-opacity:1;fill-rule:nonzero;stroke:none"
             id="path66" /></g><g
           id="g68"
           transform="translate(172.5762,230.1812)"><path
             d="m 0,0 v -2.386 c 0,-0.921 1.432,-0.922 1.432,0 V 0 C 1.432,0.921 0,0.922 0,0"
             style="fill:#ffffff;fill-opacity:1;fill-rule:nonzero;stroke:none"
             id="path70" /></g><g
           id="g72"
           transform="translate(176.8702,161.0074)"><path
             d="m 0,0 h 4.055 c 0.921,0 0.922,1.432 0,1.432 H 0 C -0.921,1.432 -0.922,0 0,0"
             style="fill:#ffffff;fill-opacity:1;fill-rule:nonzero;stroke:none"
             id="path74" /></g><g
           id="g76"
           transform="translate(221.9522,163.3931)"><path
             d="m 0,0 v -1.432 c 0,-0.921 1.431,-0.922 1.431,0 V 0 C 1.431,0.921 0,0.922 0,0"
             style="fill:#ffffff;fill-opacity:1;fill-rule:nonzero;stroke:none"
             id="path78" /></g><g
           id="g80"
           transform="translate(317.1255,145.2642)"><path
             d="m 0,0 h 1.908 c 0.921,0 0.923,1.432 0,1.432 H 0 C -0.921,1.432 -0.922,0 0,0"
             style="fill:#ffffff;fill-opacity:1;fill-rule:nonzero;stroke:none"
             id="path82" /></g><g
           id="g84"
           transform="translate(292.7955,188.1998)"><path
             d="m 0,0 v -4.293 c 0,-0.921 1.431,-0.923 1.431,0 V 0 C 1.431,0.921 0,0.923 0,0"
             style="fill:#ffffff;fill-opacity:1;fill-rule:nonzero;stroke:none"
             id="path86" /></g><g
           id="g88"
           transform="translate(267.0342,123.3199)"><path
             d="m 0,0 h 3.101 c 0.92,0 0.922,1.432 0,1.432 H 0 C -0.921,1.432 -0.922,0 0,0"
             style="fill:#ffffff;fill-opacity:1;fill-rule:nonzero;stroke:none"
             id="path90" /></g><g
           id="g92"
           transform="translate(117.2374,124.0357)"><path
             d="m 0,0 h 1.909 c 0.921,0 0.922,1.431 0,1.431 H 0 C -0.92,1.431 -0.922,0 0,0"
             style="fill:#ffffff;fill-opacity:1;fill-rule:nonzero;stroke:none"
             id="path94" /></g><g
           id="g96"
           transform="translate(112.9439,218.9703)"><path
             d="m 0,0 v -5.009 c 0,-0.921 1.431,-0.923 1.431,0 V 0 C 1.431,0.921 0,0.923 0,0"
             style="fill:#ffffff;fill-opacity:1;fill-rule:nonzero;stroke:none"
             id="path98" /></g><g
           id="g100"
           transform="translate(193.3287,185.5757)"><path
             d="M 0,0 C 0.921,0 0.922,1.432 0,1.432 -0.921,1.432 -0.922,0 0,0"
             style="fill:#ffffff;fill-opacity:1;fill-rule:nonzero;stroke:none"
             id="path102" /></g><g
           id="g104"
           transform="translate(201.1207,264.5298)"><path
             d="m 0,0 h 2.067 c 0.921,0 0.923,1.431 0,1.431 H 0 C -0.921,1.431 -0.922,0 0,0"
             style="fill:#ffffff;fill-opacity:1;fill-rule:nonzero;stroke:none"
             id="path106" /></g><g
           id="g108"
           transform="translate(257.2545,276.1382)"><path
             d="m 0,0 h 2.862 c 0.921,0 0.923,1.431 0,1.431 H 0 C -0.921,1.431 -0.922,0 0,0"
             style="fill:#ffffff;fill-opacity:1;fill-rule:nonzero;stroke:none"
             id="path110" /></g><g
           id="g112"
           transform="translate(275.5416,275.8199)"><path
             d="m 0,0 h 2.227 c 0.92,0 0.922,1.431 0,1.431 H 0 C -0.921,1.431 -0.922,0 0,0"
             style="fill:#ffffff;fill-opacity:1;fill-rule:nonzero;stroke:none"
             id="path114" /></g><g
           id="g116"
           transform="translate(227.2296,226.9029)"><path
             d="m 0,0 c -2.85,0 -5.168,2.318 -5.168,5.168 0,2.851 2.318,5.169 5.168,5.169 2.531,0 4.641,-1.829 5.082,-4.234 H 3.051 C 2.837,6.103 2.664,5.929 2.664,5.715 V 4.622 c 0,-0.215 0.173,-0.388 0.387,-0.388 H 5.082 C 4.641,1.829 2.531,0 0,0 m 0,11.291 c -3.376,0 -6.123,-2.747 -6.123,-6.123 0,-3.375 2.747,-6.122 6.123,-6.122 3.376,0 6.123,2.747 6.123,6.122 0,3.376 -2.747,6.123 -6.123,6.123"
             style="fill:#000000;fill-opacity:1;fill-rule:nonzero;stroke:none"
             id="path118" /></g><g
           id="g120"
           transform="translate(251.1861,269.3091)"><path
             d="m 0,0 c 1.155,0 2.095,-0.939 2.095,-2.095 0,-1.155 -0.94,-2.094 -2.095,-2.094 -1.155,0 -2.095,0.939 -2.095,2.094 C -2.095,-0.939 -1.155,0 0,0 m 0,-4.905 c 1.55,0 2.811,1.26 2.811,2.81 0,1.55 -1.261,2.811 -2.811,2.811 -1.55,0 -2.811,-1.261 -2.811,-2.811 0,-1.55 1.261,-2.81 2.811,-2.81"
             style="fill:#000000;fill-opacity:1;fill-rule:nonzero;stroke:none"
             id="path122" /></g><g
           id="g124"
           transform="translate(248.7799,248.317)"><path
             d="m 0,0 c 0,-1.155 -0.94,-2.095 -2.095,-2.095 -1.155,0 -2.095,0.94 -2.095,2.095 0,1.155 0.94,2.096 2.095,2.096 C -0.94,2.096 0,1.155 0,0 m -4.906,0 c 0,-1.55 1.261,-2.811 2.811,-2.811 1.55,0 2.81,1.261 2.81,2.811 0,1.55 -1.26,2.811 -2.81,2.811 -1.55,0 -2.811,-1.261 -2.811,-2.811"
             style="fill:#000000;fill-opacity:1;fill-rule:nonzero;stroke:none"
             id="path126" /></g><g
           id="g128"
           transform="translate(267.8736,269.3091)"><path
             d="m 0,0 c 1.155,0 2.095,-0.939 2.095,-2.095 0,-1.155 -0.94,-2.094 -2.095,-2.094 -1.155,0 -2.095,0.939 -2.095,2.094 C -2.095,-0.939 -1.155,0 0,0 m 0,-4.905 c 1.55,0 2.81,1.26 2.81,2.81 0,1.55 -1.26,2.811 -2.81,2.811 -1.55,0 -2.811,-1.261 -2.811,-2.811 0,-1.55 1.261,-2.81 2.811,-2.81"
             style="fill:#000000;fill-opacity:1;fill-rule:nonzero;stroke:none"
             id="path130" /></g><g
           id="g132"
           transform="translate(284.5606,269.3091)"><path
             d="m 0,0 c 1.155,0 2.095,-0.939 2.095,-2.095 0,-1.155 -0.94,-2.094 -2.095,-2.094 -1.155,0 -2.095,0.939 -2.095,2.094 C -2.095,-0.939 -1.155,0 0,0 m 0,-4.905 c 1.55,0 2.811,1.26 2.811,2.81 0,1.55 -1.261,2.811 -2.811,2.811 -1.55,0 -2.811,-1.261 -2.811,-2.811 0,-1.55 1.261,-2.81 2.811,-2.81"
             style="fill:#000000;fill-opacity:1;fill-rule:nonzero;stroke:none"
             id="path134" /></g><g
           id="g136"
           transform="translate(301.2481,269.3091)"><path
             d="m 0,0 c 1.155,0 2.095,-0.939 2.095,-2.095 0,-1.155 -0.94,-2.094 -2.095,-2.094 -1.155,0 -2.095,0.939 -2.095,2.094 C -2.095,-0.939 -1.155,0 0,0 m 0,-4.905 c 1.55,0 2.811,1.26 2.811,2.81 0,1.55 -1.261,2.811 -2.811,2.811 -1.55,0 -2.811,-1.261 -2.811,-2.811 0,-1.55 1.261,-2.81 2.811,-2.81"
             style="fill:#000000;fill-opacity:1;fill-rule:nonzero;stroke:none"
             id="path138" /></g><g
           id="g140"
           transform="translate(129.8897,238.273)"><path
             d="m 0,0 c 0.823,0 1.491,0.668 1.491,1.491 0,0.823 -0.668,1.49 -1.491,1.49 -0.823,0 -1.491,-0.667 -1.491,-1.49 C -1.491,0.668 -0.823,0 0,0"
             style="fill:#000000;fill-opacity:1;fill-rule:nonzero;stroke:none"
             id="path142" /></g><g
           id="g144"
           transform="translate(136.3497,238.273)"><path
             d="m 0,0 c 0.823,0 1.491,0.668 1.491,1.491 0,0.823 -0.668,1.49 -1.491,1.49 -0.823,0 -1.491,-0.667 -1.491,-1.49 C -1.491,0.668 -0.823,0 0,0"
             style="fill:#000000;fill-opacity:1;fill-rule:nonzero;stroke:none"
             id="path146" /></g><g
           id="g148"
           transform="translate(142.8101,238.273)"><path
             d="m 0,0 c 0.823,0 1.491,0.668 1.491,1.491 0,0.823 -0.668,1.49 -1.491,1.49 -0.824,0 -1.491,-0.667 -1.491,-1.49 C -1.491,0.668 -0.824,0 0,0"
             style="fill:#000000;fill-opacity:1;fill-rule:nonzero;stroke:none"
             id="path150" /></g><g
           id="g152"
           transform="translate(149.2701,238.273)"><path
             d="m 0,0 c 0.823,0 1.491,0.668 1.491,1.491 0,0.823 -0.668,1.49 -1.491,1.49 -0.823,0 -1.491,-0.667 -1.491,-1.49 C -1.491,0.668 -0.823,0 0,0"
             style="fill:#000000;fill-opacity:1;fill-rule:nonzero;stroke:none"
             id="path154" /></g><g
           id="g156"
           transform="translate(223.5753,209.9351)"><path
             d="m 0,0 c 0.976,0.977 2.274,1.514 3.654,1.514 1.381,0 2.679,-0.537 3.655,-1.514 0.976,-0.976 1.514,-2.273 1.514,-3.654 0,-1.38 -0.538,-2.678 -1.514,-3.655 -0.976,-0.976 -2.274,-1.513 -3.655,-1.513 -1.063,0 -2.076,0.322 -2.932,0.915 l 1.435,1.434 c 0.152,0.152 0.152,0.398 0,0.549 L 1.384,-5.151 C 1.233,-5 0.987,-5 0.836,-5.151 l -1.435,-1.435 c -0.593,0.856 -0.915,1.868 -0.915,2.932 0,1.381 0.538,2.678 1.514,3.654 m -0.675,-7.983 c 1.156,-1.157 2.694,-1.793 4.329,-1.793 1.636,0 3.173,0.636 4.329,1.793 1.157,1.156 1.794,2.694 1.794,4.329 0,1.635 -0.637,3.173 -1.794,4.329 -1.156,1.156 -2.693,1.793 -4.329,1.793 -1.635,0 -3.173,-0.637 -4.329,-1.793 -1.156,-1.156 -1.793,-2.694 -1.793,-4.329 0,-1.635 0.637,-3.173 1.793,-4.329"
             style="fill:#000000;fill-opacity:1;fill-rule:nonzero;stroke:none"
             id="path158" /></g><g
           id="g160"
           transform="translate(223.9351,176.442)"><path
             d="m 0,0 c -1.063,0.88 -1.721,2.121 -1.851,3.496 -0.1,1.059 0.125,2.098 0.635,3.005 L 0.348,5.207 C 0.513,5.071 0.757,5.094 0.894,5.259 L 1.591,6.102 C 1.727,6.267 1.704,6.511 1.539,6.647 l -1.565,1.294 c 0.949,0.797 2.133,1.207 3.325,1.207 1.16,0 2.328,-0.388 3.29,-1.184 C 8.785,6.147 9.093,2.883 7.276,0.687 6.396,-0.376 5.155,-1.033 3.781,-1.163 2.405,-1.292 1.063,-0.88 0,0 m 8.011,0.079 c 2.153,2.602 1.787,6.468 -0.814,8.62 -2.6,2.153 -6.468,1.786 -8.619,-0.814 -1.043,-1.26 -1.533,-2.851 -1.379,-4.479 0.154,-1.628 0.933,-3.098 2.193,-4.141 1.139,-0.943 2.522,-1.403 3.897,-1.403 1.763,0 3.513,0.756 4.722,2.217"
             style="fill:#000000;fill-opacity:1;fill-rule:nonzero;stroke:none"
             id="path162" /></g><g
           id="g164"
           transform="translate(197.9273,211.4488)"><path
             d="m 0,0 c 2.85,0 5.168,-2.318 5.168,-5.168 0,-2.53 -1.829,-4.641 -4.233,-5.082 v 2.031 c 0,0.214 -0.174,0.388 -0.388,0.388 h -1.093 c -0.215,0 -0.388,-0.174 -0.388,-0.388 v -2.031 c -2.405,0.441 -4.234,2.552 -4.234,5.082 C -5.168,-2.318 -2.85,0 0,0 m 0,-11.29 c 3.376,0 6.123,2.746 6.123,6.122 0,3.376 -2.747,6.122 -6.123,6.122 -3.376,0 -6.122,-2.746 -6.122,-6.122 0,-3.376 2.746,-6.122 6.122,-6.122"
             style="fill:#000000;fill-opacity:1;fill-rule:nonzero;stroke:none"
             id="path166" /></g><g
           id="g168"
           transform="translate(100.9937,244.7652)"><path
             d="M 0,0 H -1.431 V -3.512 H 6.646 V -4.664 H 11.86 V -6.255 H 6.646 V -7.686 H 11.86 V -8.957 H 6.646 v -1.432 H 11.86 V -11.66 H 6.646 v -1.431 h 5.214 v -1.273 H 6.646 v -1.432 h 5.214 v -1.589 H 6.646 v -0.777 h 6.099 v 14.65 h 4.005 v 0.28 H 0 Z m 25.964,-67.254 h 17.582 v 0.478 H 25.964 Z M 6.646,15.254 c 0,0.329 0.267,0.596 0.596,0.596 H 11.86 V 1.192 H 7.242 c -0.329,0 -0.596,0.267 -0.596,0.597 z m 6.645,0.596 h 1.431 c 0.329,0 0.596,-0.267 0.596,-0.596 V 1.789 c 0,-0.33 -0.267,-0.597 -0.596,-0.597 H 13.291 Z M 42.015,0.954 39.128,3.84 h -3.296 v 3.115 h 11.032 c 0.2,-0.589 0.756,-1.014 1.412,-1.014 0.716,0 1.317,0.506 1.457,1.181 0.022,0.101 0.034,0.205 0.034,0.311 0,0.104 -0.012,0.21 -0.034,0.309 -0.14,0.675 -0.741,1.181 -1.457,1.181 -0.656,0 -1.212,-0.425 -1.412,-1.014 H 31.092 L 28.698,5.515 H 16.75 v 9.739 c 0,1.118 -0.909,2.027 -2.028,2.027 h -7.48 c -1.119,0 -2.028,-0.909 -2.028,-2.027 V 1.789 C 5.214,1.014 5.651,0.341 6.29,0 6.574,-0.153 6.898,-0.239 7.242,-0.239 h 7.48 c 0.343,0 0.668,0.086 0.952,0.239 0.639,0.341 1.076,1.014 1.076,1.789 v 2.772 h 12.343 l 2.395,2.394 h 3.39 V 2.886 h 3.854 L 41.619,0 h 11.423 v 0.954 z m 7.718,34.191 h 3.309 v 0.441 H 49.733 Z M 60.72,-27.901 h 0.954 v 4.552 H 60.72 Z m 16.408,0 h 0.021 v 4.552 h -0.021 z m 0,-70.795 h 1.431 v 2.383 H 77.128 Z M 68.482,35.145 h 0.601 v -4.26 c 0,-0.329 0.267,-0.597 0.596,-0.597 0.329,0 0.596,0.268 0.596,0.597 v 4.26 h 1.522 v -4.26 c 0,-0.329 0.267,-0.597 0.597,-0.597 0.329,0 0.596,0.268 0.596,0.597 v 4.26 h 1.519 v -4.26 c 0,-0.329 0.268,-0.597 0.597,-0.597 0.329,0 0.596,0.268 0.596,0.597 v 4.26 h 1.522 v -4.26 c 0,-0.329 0.267,-0.597 0.596,-0.597 0.329,0 0.597,0.268 0.597,0.597 v 4.26 h 1.519 v -4.26 c 0,-0.329 0.267,-0.597 0.596,-0.597 0.329,0 0.597,0.268 0.597,0.597 v 4.26 h 1.521 v -4.26 c 0,-0.329 0.267,-0.597 0.597,-0.597 0.329,0 0.596,0.268 0.596,0.597 v 4.26 h 1.52 v -2.579 h 0.133 v 3.02 H 68.482 Z m 39.116,-133.841 h 0.954 v 2.383 h -0.954 z m 1.274,133.839 h 2.712 v 0.443 h -2.712 z m 0,-23.002 h 2.712 v 0.954 h -2.712 z m 0,-10.467 h 2.712 v 0.719 h -2.712 z m 32.051,-84.714 h -0.954 v -12.582 h 0.954 z m -11.06,-40.234 h 12.563 v 0.257 h -12.563 z m 42.921,135.415 h 3.99 v 0.477 h -4.443 V 3.074 h 0.453 z m 3.99,-24.12 h -4.444 v -0.89 h 4.444 z m -26.159,-12.022 h 0.613 v 0.651 h 33.689 v -0.651 h 0.683 v 1.383 h -34.985 z m 34.302,-11.521 h -4.138 c -0.002,0 -0.002,0.002 -0.005,0.002 -0.002,0 -0.002,-0.002 -0.004,-0.002 h -8.458 c -0.003,0 -0.003,0.002 -0.005,0.002 -0.003,0 -0.003,-0.002 -0.005,-0.002 h -8.458 c -0.003,0 -0.003,0.002 -0.005,0.002 -0.003,0 -0.003,-0.002 -0.005,-0.002 h -8.458 c -0.002,0 -0.002,0.002 -0.005,0.002 -0.002,0 -0.002,-0.002 -0.005,-0.002 h -4.138 v 2.549 h -1.009 v -3.282 H 185.6 v 3.282 h -0.683 z m -34.302,-14.216 h 0.613 v 0.651 h 33.689 v -0.651 h 0.683 v 1.383 h -34.985 z m 34.302,-11.522 h -33.689 v 2.55 h -1.009 v -3.282 H 185.6 v 3.282 h -0.683 z m -34.302,-14.216 h 0.613 v 0.649 h 4.117 c 0.009,0 0.016,-0.002 0.026,-0.002 0.009,0 0.017,0.002 0.026,0.002 h 8.415 c 0.01,0 0.017,-0.002 0.027,-0.002 0.009,0 0.016,0.002 0.026,0.002 h 8.415 c 0.01,0 0.017,-0.002 0.027,-0.002 0.009,0 0.016,0.002 0.026,0.002 h 8.415 c 0.01,0 0.017,-0.002 0.026,-0.002 0.01,0 0.017,0.002 0.027,0.002 h 4.116 v -0.649 h 0.683 v 1.383 h -34.985 z m 34.302,-11.521 h -33.689 v 2.55 h -1.009 v -3.282 H 185.6 v 3.282 h -0.683 z m -34.302,-14.085 h 0.613 v 0.518 h 33.689 v -0.518 h 0.683 v 1.384 h -34.985 z m 34.302,-11.652 h -33.689 v 2.681 h -1.009 v -3.282 H 185.6 v 3.282 h -0.683 z m 5.363,105.845 c -1.183,0 -2.147,0.963 -2.147,2.147 0,1.182 0.964,2.146 2.147,2.146 1.185,0 2.147,-0.964 2.147,-2.146 0,-1.184 -0.962,-2.147 -2.147,-2.147 m 0,5.725 c -1.727,0 -3.173,-1.232 -3.504,-2.862 h -14.445 v -1.432 h 14.445 c 0.331,-1.632 1.777,-2.862 3.504,-2.862 1.975,0 3.578,1.605 3.578,3.578 0,1.972 -1.603,3.578 -3.578,3.578"
             style="fill:#000000;fill-opacity:1;fill-rule:nonzero;stroke:none"
             id="path170" /></g><g
           id="g172"
           transform="translate(332.8399,234.2173)"><path
             d="M 0,0 C 0,-0.47 -0.384,-0.854 -0.856,-0.854 H -8.12 c -0.472,0 -0.856,0.384 -0.856,0.854 v 3.659 c 0,0.47 0.384,0.854 0.856,0.854 h 7.264 C -0.384,4.513 0,4.129 0,3.659 Z m -2.836,-4.064 h -8.606 c -1.343,0 -2.436,-1.095 -2.436,-2.439 v -10.915 h -3.716 v 49.7 H -2.836 V 5.944 H -8.12 c -1.261,0 -2.287,-1.026 -2.287,-2.285 V 0 c 0,-1.26 1.026,-2.285 2.287,-2.285 h 5.284 z m 0,-4.29 h -9.611 v 1.851 c 0,0.556 0.451,1.007 1.005,1.007 h 8.606 z m 0,-4.532 h -9.61 v 3.101 h 9.61 z m 0,-4.532 h -9.61 v 3.102 h 9.61 z m 0,-4.532 h -9.61 v 3.102 h 9.61 z m 0,-4.531 h -9.61 v 3.101 h 9.61 z m 0,-4.533 h -9.61 v 3.101 h 9.61 z m 0,-4.532 h -9.61 v 3.101 h 9.61 z m 0,-4.532 h -9.61 v 3.101 h 9.61 z m 0,-4.532 h -9.61 v 3.102 h 9.61 z m 0,-4.533 h -9.61 v 3.102 h 9.61 z m 0,-4.531 h -9.61 v 3.101 h 9.61 z m 0,-4.532 h -9.61 v 3.101 h 9.61 z m 0,-4.289 h -8.606 c -0.554,0 -1.005,0.451 -1.005,1.007 v 1.85 h 9.611 z m 0,-20.198 -8.514,-8.514 h -20.475 v 32.245 h -3.063 v 19.686 h 6.78 v -15.829 h 14.23 v -6.383 c 0,-1.343 1.093,-2.438 2.436,-2.438 h 8.606 z m 0,-17.111 h -28.989 v 7.643 h 20.869 l 8.12,8.117 z m 0,-12.666 h -18.451 v 3.231 c 0,1.426 -1.161,2.588 -2.588,2.588 h -2.072 c -1.429,0 -2.589,-1.162 -2.589,-2.588 v -3.231 h -3.391 v 3.231 c 0,1.426 -1.162,2.588 -2.589,2.588 h -2.072 c -1.429,0 -2.588,-1.162 -2.588,-2.588 v -3.231 h -11.18 v 8.853 h 4.858 v 2.383 h 42.662 z m -19.882,0 h -4.386 v 3.231 c 0,0.636 0.517,1.156 1.157,1.156 h 2.072 c 0.637,0 1.157,-0.52 1.157,-1.156 z m -10.64,0 h -4.387 v 3.231 c 0,0.636 0.517,1.156 1.157,1.156 h 2.072 c 0.638,0 1.158,-0.52 1.158,-1.156 z m -18.429,0 H -89.42 v -0.257 h -12.563 v 0.257 h -14.09 v 4.258 c 0,0.329 -0.268,0.597 -0.597,0.597 -0.329,0 -0.596,-0.268 -0.596,-0.597 v -4.258 h -1.522 v 4.258 c 0,0.329 -0.267,0.597 -0.596,0.597 -0.329,0 -0.596,-0.268 -0.596,-0.597 v -4.258 h -1.52 v 4.258 c 0,0.329 -0.267,0.597 -0.596,0.597 -0.329,0 -0.597,-0.268 -0.597,-0.597 v -4.258 h -1.521 v 4.258 c 0,0.329 -0.267,0.597 -0.597,0.597 -0.329,0 -0.596,-0.268 -0.596,-0.597 v -4.258 h -1.52 v 4.258 c 0,0.329 -0.267,0.597 -0.596,0.597 -0.329,0 -0.596,-0.268 -0.596,-0.597 v -4.258 h -1.522 v 4.258 c 0,0.329 -0.267,0.597 -0.596,0.597 -0.329,0 -0.596,-0.268 -0.596,-0.597 v -4.258 h -1.52 v 4.258 c 0,0.329 -0.267,0.597 -0.596,0.597 -0.33,0 -0.597,-0.268 -0.597,-0.597 v -4.258 h -1.521 v 4.258 c 0,0.329 -0.267,0.597 -0.597,0.597 -0.329,0 -0.596,-0.268 -0.596,-0.597 v -4.258 h -29.182 v 3.543 h 12.155 v 7.693 h 14.68 c 0.255,-0.573 0.827,-0.971 1.493,-0.971 0.668,0 1.24,0.398 1.495,0.971 h 53.569 v -2.383 h 4.859 v -1.587 c 0,-0.396 0.32,-0.715 0.716,-0.715 0.396,0 0.715,0.319 0.715,0.715 v 1.587 h 7.037 v -1.587 c 0,-0.396 0.32,-0.715 0.716,-0.715 0.396,0 0.715,0.319 0.715,0.715 v 1.587 h 7.037 v -1.587 c 0,-0.396 0.319,-0.715 0.715,-0.715 0.396,0 0.716,0.319 0.716,0.715 v 1.587 h 7.037 z m -115.086,0 h -64.973 v 6.406 h 7.308 c 1.262,0 2.286,1.025 2.286,2.285 v 3.656 c 0,1.262 -1.024,2.287 -2.286,2.287 h -0.675 c 0.007,0.038 0.012,0.079 0.012,0.12 v 13.495 h 17.737 v -4.719 h -2.981 c -0.394,0 -0.716,-0.321 -0.716,-0.716 0,-0.397 0.322,-0.716 0.716,-0.716 h 2.981 v -4.721 h -2.981 c -0.394,0 -0.716,-0.321 -0.716,-0.715 0,-0.396 0.322,-0.715 0.716,-0.715 h 2.981 v -2.694 c 0,-1.903 1.548,-3.449 3.449,-3.449 h 2.696 v -2.981 c 0,-0.396 0.32,-0.716 0.715,-0.716 0.394,0 0.716,0.32 0.716,0.716 v 2.981 h 4.721 v -2.981 c 0,-0.396 0.319,-0.716 0.715,-0.716 0.394,0 0.716,0.32 0.716,0.716 v 2.981 h 4.72 v -2.981 c 0,-0.396 0.32,-0.716 0.716,-0.716 0.396,0 0.716,0.32 0.716,0.716 v 2.981 h 4.72 v -2.981 c 0,-0.396 0.32,-0.716 0.716,-0.716 0.396,0 0.715,0.32 0.715,0.716 v 2.981 h 4.721 v -2.981 c 0,-0.396 0.319,-0.716 0.715,-0.716 0.396,0 0.716,0.32 0.716,0.716 v 2.981 h 2.693 c 1.903,0 3.449,1.546 3.449,3.449 v 2.694 h 2.981 c 0.396,0 0.716,0.319 0.716,0.715 0,0.394 -0.32,0.715 -0.716,0.715 h -2.981 v 4.721 h 2.981 c 0.396,0 0.716,0.319 0.716,0.716 0,0.395 -0.32,0.716 -0.716,0.716 h -2.981 v 4.719 h 2.981 c 0.396,0 0.716,0.321 0.716,0.716 0,0.397 -0.32,0.716 -0.716,0.716 h -2.981 v 4.721 h 14.421 v -7.698 h 1.431 v 7.698 h 19.09 v 5.099 h 9.949 v -12.797 h 0.954 v 13.751 h -10.903 v 34.647 c 4.883,0.367 8.747,4.456 8.747,9.431 0,4.976 -3.864,9.064 -8.747,9.431 V 9.045 c 1.224,0.276 2.187,1.24 2.462,2.464 h 25.408 V 7.287 c -4.883,-0.367 -8.745,-4.456 -8.745,-9.434 0,-4.976 3.862,-9.064 8.745,-9.431 v -6.93 c -2.178,-0.165 -4.31,-1.076 -5.973,-2.738 -3.69,-3.691 -3.69,-9.691 0,-13.382 1.663,-1.662 3.795,-2.573 5.973,-2.735 v -7.004 c -2.474,-0.186 -4.871,-1.335 -6.574,-3.394 -1.61,-1.949 -2.366,-4.406 -2.13,-6.923 0.239,-2.515 1.441,-4.789 3.389,-6.399 1.565,-1.295 3.428,-1.999 5.315,-2.14 v -36.581 h -16.967 v 11.656 h -0.954 v -11.656 h -11.42 c -0.275,0.518 -0.819,0.868 -1.446,0.868 -0.625,0 -1.169,-0.35 -1.443,-0.868 h -14.73 v 11.656 h -1.431 v -19.348 h -12.155 z m -67.881,7.836 c -0.472,0 -0.856,0.382 -0.856,0.855 v 3.656 c 0,0.473 0.384,0.856 0.856,0.856 h 10.216 c 0.473,0 0.854,-0.383 0.854,-0.856 v -3.656 c 0,-0.473 -0.381,-0.855 -0.854,-0.855 z m 2.908,96.366 h 5.214 v -89.448 c 0,-0.041 0.005,-0.082 0.012,-0.12 h -5.226 z m 6.645,-69.8 h 17.737 v -4.721 h -17.737 z m 14.327,45.528 c 0,-1.308 -1.064,-2.371 -2.372,-2.371 -1.307,0 -2.371,1.063 -2.371,2.371 0,1.307 1.064,2.37 2.371,2.37 1.308,0 2.372,-1.063 2.372,-2.37 m 10.533,0.477 v 1.793 c 0,0.883 0.718,1.603 1.603,1.603 h 20.876 c 0.883,0 1.603,-0.72 1.603,-1.603 v -1.793 z m 3.692,-2.524 c 0.263,0 0.477,0.215 0.477,0.477 v 1.092 h 2.386 v -1.092 c 0,-0.262 0.212,-0.477 0.477,-0.477 0.262,0 0.477,0.215 0.477,0.477 v 1.092 h 2.385 v -1.092 c 0,-0.262 0.212,-0.477 0.477,-0.477 0.262,0 0.477,0.215 0.477,0.477 v 1.092 h 2.386 v -1.092 c 0,-0.262 0.212,-0.477 0.477,-0.477 0.262,0 0.477,0.215 0.477,0.477 v 1.092 h 2.385 v -1.092 c 0,-0.262 0.212,-0.477 0.477,-0.477 0.262,0 0.477,0.215 0.477,0.477 v 1.092 h 2.385 v -1.092 c 0,-0.262 0.213,-0.477 0.477,-0.477 0.263,0 0.477,0.215 0.477,0.477 v 1.092 h 3.216 v -1.794 c 0,-0.884 -0.72,-1.602 -1.603,-1.602 h -20.876 c -0.885,0 -1.603,0.718 -1.603,1.602 v 1.794 h 3.215 v -1.092 c 0,-0.262 0.212,-0.477 0.477,-0.477 m -28.552,26.319 h 10.104 v 4.711 h 43.971 v -9.245 h 0.954 v 10.199 h -44.925 v 1.41 h 42.301 v 23.457 h 7.256 V 6.76 h 10.822 v -19.562 h 0.022 v -4.552 h -0.022 v -11.623 h -15.454 v 11.623 h -0.954 v -12.577 h 16.408 v -1.894 h -20.11 v 1.555 c 0,1.672 -1.362,3.035 -3.034,3.035 h -20.876 c -1.675,0 -3.034,-1.363 -3.034,-3.035 v -1.555 h -7.741 c -0.336,1.754 -1.882,3.087 -3.733,3.087 -2.096,0 -3.802,-1.708 -3.802,-3.802 0,-2.097 1.706,-3.803 3.802,-3.803 1.851,0 3.397,1.331 3.733,3.087 h 7.741 v -1.556 c 0,-1.673 1.359,-3.034 3.034,-3.034 h 20.876 c 1.672,0 3.034,1.361 3.034,3.034 v 1.556 h 12.447 V -56.229 H -188.3 v -0.477 h -17.582 v 0.477 h -8.618 v -20.409 h -10.701 z m 6.646,14.152 h 2.027 V -6.837 h -2.027 z m 41.862,0.914 v 38.894 h 2.466 V 4.334 Z m 39.951,5.427 c 0,1.005 0.821,1.827 1.829,1.827 1.01,0 1.83,-0.822 1.83,-1.827 0,-1.009 -0.82,-1.83 -1.83,-1.83 -1.008,0 -1.829,0.821 -1.829,1.83 m -6.202,-40.162 c 0,4.429 3.604,8.032 8.031,8.032 4.428,0 8.032,-3.603 8.032,-8.032 0,-4.427 -3.604,-8.031 -8.032,-8.031 -4.427,0 -8.031,3.604 -8.031,8.031 m -11.752,51.105 c 0,1.009 0.821,1.827 1.827,1.827 1.009,0 1.829,-0.82 1.829,-1.829 0,-1.007 -0.82,-1.827 -1.829,-1.827 -0.918,0 -1.679,0.682 -1.806,1.564 0.003,0.027 0.008,0.05 0.008,0.076 0,0.065 -0.013,0.129 -0.029,0.189 m 1.409,-70.013 V 8.19 h -10.821 v 14.074 h 8.109 c 0.351,-1.211 1.384,-2.13 2.653,-2.319 v -8.198 h 15.213 c 0.196,-1.336 1.202,-2.409 2.505,-2.702 v -27.551 c -4.883,-0.367 -8.747,-4.455 -8.747,-9.431 0,-4.975 3.864,-9.064 8.747,-9.431 V -64.504 Z M -170.57,-67.79 v -31.427 c 0,-1.114 -0.904,-2.017 -2.018,-2.017 h -31.427 c -1.111,0 -2.018,0.903 -2.018,2.017 v 31.427 c 0,1.111 0.907,2.016 2.018,2.016 h 31.427 c 0.052,0 0.105,-0.003 0.155,-0.008 0.019,0 0.036,-0.002 0.05,-0.002 0.052,-0.007 0.105,-0.015 0.157,-0.025 0.046,-0.006 0.091,-0.016 0.134,-0.028 0.002,0 0.005,0 0.007,-0.002 0.024,-0.005 0.048,-0.013 0.072,-0.019 0.009,-0.002 0.016,-0.005 0.023,-0.007 0.036,-0.012 0.07,-0.025 0.105,-0.036 0.067,-0.024 0.129,-0.053 0.191,-0.083 0.038,-0.02 0.074,-0.038 0.11,-0.06 0.062,-0.034 0.119,-0.069 0.174,-0.112 0.036,-0.025 0.072,-0.053 0.105,-0.079 0.005,-0.005 0.012,-0.01 0.017,-0.014 0.193,-0.163 0.353,-0.358 0.475,-0.582 0.03,-0.058 0.059,-0.117 0.083,-0.177 0.014,-0.031 0.026,-0.062 0.041,-0.096 0.006,-0.021 0.014,-0.044 0.021,-0.069 0.064,-0.195 0.098,-0.403 0.098,-0.617 m 4.412,-2.695 h -2.981 v 2.695 c 0,1.9 -1.546,3.446 -3.449,3.446 h -2.693 v 2.982 c 0,0.396 -0.32,0.716 -0.716,0.716 -0.396,0 -0.715,-0.32 -0.715,-0.716 v -2.982 h -4.721 v 2.982 c 0,0.396 -0.319,0.716 -0.715,0.716 -0.396,0 -0.716,-0.32 -0.716,-0.716 v -2.982 h -4.72 v 2.982 c 0,0.396 -0.32,0.716 -0.716,0.716 -0.396,0 -0.716,-0.32 -0.716,-0.716 v -2.982 h -4.72 v 2.982 c 0,0.396 -0.322,0.716 -0.716,0.716 -0.396,0 -0.715,-0.32 -0.715,-0.716 v -2.982 h -4.721 v 2.982 c 0,0.396 -0.322,0.716 -0.716,0.716 -0.395,0 -0.715,-0.32 -0.715,-0.716 v -2.982 h -2.696 c -1.901,0 -3.449,-1.546 -3.449,-3.446 v -2.695 h -2.981 c -0.394,0 -0.716,-0.321 -0.716,-0.716 0,-0.394 0.322,-0.716 0.716,-0.716 h 2.981 v -4.721 h -6.082 v 19.455 h 52.119 v 23.927 h 6.709 v -14.183 l 19.09,-19.089 v -10.11 h -33.511 v 4.721 h 2.981 c 0.396,0 0.716,0.322 0.716,0.716 0,0.395 -0.32,0.716 -0.716,0.716 m 84.927,57.032 v 1.383 h 34.985 v -1.383 h -0.683 v -8.972 h 0.683 v -3.282 h -35.381 v 3.282 h 1.008 v 8.972 z m 0,-25.737 v 1.382 h 34.985 v -1.382 h -0.683 v -8.972 h 0.683 v -3.282 h -35.381 v 3.282 h 1.008 v 8.972 z m 0,-25.738 v 1.383 h 34.985 v -1.383 h -0.683 v -8.971 h 0.683 v -3.283 h -35.381 v 3.283 h 1.008 v 8.971 z m -24.373,19.161 c 1.803,0 3.618,-0.601 5.114,-1.839 1.653,-1.367 2.674,-3.296 2.874,-5.431 0.203,-2.138 -0.439,-4.223 -1.808,-5.875 -2.822,-3.411 -7.893,-3.891 -11.306,-1.068 -1.653,1.366 -2.674,3.295 -2.874,5.43 -0.204,2.138 0.438,4.222 1.808,5.875 1.583,1.918 3.88,2.908 6.192,2.908 m -0.007,35.591 c -4.428,0 -8.03,3.602 -8.03,8.029 0,4.429 3.602,8.031 8.03,8.031 4.429,0 8.031,-3.602 8.031,-8.031 0,-4.427 -3.602,-8.029 -8.031,-8.029 m 5.679,-12.082 c 3.132,-3.132 3.132,-8.226 0,-11.356 -3.132,-3.132 -8.225,-3.132 -11.357,0 -3.131,3.13 -3.131,8.224 0,11.356 3.132,3.13 8.227,3.13 11.357,0 m 53.686,-77.247 v -3.282 h -35.381 v 3.282 h 1.008 v 8.971 h -0.612 v 1.384 h 34.985 v -1.384 h -0.683 v -8.971 z m 13.467,39.588 v -39.887 h -12.719 v 2.987 h 1.22 c 0.393,0 0.715,0.32 0.715,0.715 0,0.397 -0.322,0.716 -0.715,0.716 h -1.22 v 2.987 h 1.22 c 0.393,0 0.715,0.319 0.715,0.715 0,0.396 -0.322,0.715 -0.715,0.715 h -1.22 v 2.384 h -4.858 v 1.586 c 0,0.395 -0.32,0.716 -0.716,0.716 -0.396,0 -0.715,-0.321 -0.715,-0.716 v -1.586 h -7.037 v 1.586 c 0,0.395 -0.32,0.716 -0.716,0.716 -0.396,0 -0.715,-0.321 -0.715,-0.716 v -1.586 h -7.037 v 1.586 c 0,0.395 -0.319,0.716 -0.715,0.716 -0.396,0 -0.716,-0.321 -0.716,-0.716 v -1.586 h -7.037 v 1.586 c 0,0.395 -0.319,0.716 -0.715,0.716 -0.396,0 -0.716,-0.321 -0.716,-0.716 v -1.586 h -4.859 v -2.384 h -1.219 c -0.396,0 -0.715,-0.319 -0.715,-0.715 0,-0.396 0.319,-0.715 0.715,-0.715 h 1.219 v -2.987 h -1.219 c -0.396,0 -0.715,-0.319 -0.715,-0.716 0,-0.395 0.319,-0.715 0.715,-0.715 h 1.219 v -2.987 h -8.873 v 14.73 h -0.954 v -14.73 h -13.019 v 36.584 c 2.476,0.189 4.873,1.338 6.576,3.397 1.611,1.946 2.366,4.403 2.131,6.92 -0.239,2.515 -1.441,4.789 -3.39,6.399 -1.565,1.295 -3.428,1.999 -5.317,2.14 v 7.001 c 2.18,0.162 4.313,1.073 5.975,2.735 3.69,3.691 3.69,9.691 0,13.382 -1.662,1.662 -3.795,2.573 -5.975,2.738 v 6.93 c 4.649,0.35 8.368,4.069 8.718,8.716 h 8.902 v -3.233 l -4.601,-4.598 v -61.799 h 0.954 v 1.648 h 7.125 c 0.131,-0.145 0.319,-0.238 0.529,-0.238 h 1.219 v -2.986 h -1.219 c -0.396,0 -0.715,-0.32 -0.715,-0.716 0,-0.396 0.319,-0.716 0.715,-0.716 h 1.219 v -2.38 h 4.859 v -1.589 c 0,-0.395 0.32,-0.716 0.716,-0.716 0.396,0 0.715,0.321 0.715,0.716 v 1.589 h 7.037 v -1.589 c 0,-0.395 0.32,-0.716 0.716,-0.716 0.396,0 0.715,0.321 0.715,0.716 v 1.589 h 7.037 v -1.589 c 0,-0.395 0.319,-0.716 0.715,-0.716 0.396,0 0.716,0.321 0.716,0.716 v 1.589 h 7.037 v -1.589 c 0,-0.395 0.319,-0.716 0.715,-0.716 0.396,0 0.716,0.321 0.716,0.716 v 1.589 h 4.858 v 2.38 h 1.22 c 0.393,0 0.715,0.32 0.715,0.716 0,0.396 -0.322,0.716 -0.715,0.716 h -1.22 v 2.986 h 1.22 c 0.393,0 0.715,0.319 0.715,0.716 0,0.395 -0.322,0.715 -0.715,0.715 h -1.22 v 2.987 h 1.22 c 0.393,0 0.715,0.321 0.715,0.715 0,0.396 -0.322,0.716 -0.715,0.716 h -1.22 v 2.385 h -4.858 v 1.586 c 0,0.394 -0.32,0.716 -0.716,0.716 -0.396,0 -0.715,-0.322 -0.715,-0.716 v -1.586 h -7.037 v 1.586 c 0,0.394 -0.32,0.716 -0.716,0.716 -0.396,0 -0.715,-0.322 -0.715,-0.716 v -1.586 h -7.037 v 1.586 c 0,0.394 -0.319,0.716 -0.715,0.716 -0.396,0 -0.716,-0.322 -0.716,-0.716 v -1.586 h -7.037 v 1.586 c 0,0.394 -0.319,0.716 -0.715,0.716 -0.396,0 -0.716,-0.322 -0.716,-0.716 v -1.586 h -4.859 v -2.385 h -1.219 c -0.396,0 -0.715,-0.32 -0.715,-0.716 0,-0.394 0.319,-0.715 0.715,-0.715 h 1.219 v -2.987 h -1.219 c -0.21,0 -0.398,-0.093 -0.529,-0.239 h -7.125 v 24.786 h 7.125 c 0.131,-0.145 0.319,-0.239 0.529,-0.239 h 1.219 v -2.986 h -1.219 c -0.396,0 -0.715,-0.319 -0.715,-0.715 0,-0.394 0.319,-0.716 0.715,-0.716 h 1.219 v -2.383 h 4.859 v -1.586 c 0,-0.396 0.32,-0.715 0.716,-0.715 0.396,0 0.715,0.319 0.715,0.715 v 1.586 h 7.037 v -1.586 c 0,-0.396 0.32,-0.715 0.716,-0.715 0.396,0 0.715,0.319 0.715,0.715 v 1.586 h 7.037 v -1.586 c 0,-0.396 0.319,-0.715 0.715,-0.715 0.396,0 0.716,0.319 0.716,0.715 v 1.586 h 7.037 v -1.586 c 0,-0.396 0.319,-0.715 0.715,-0.715 0.396,0 0.716,0.319 0.716,0.715 v 1.586 h 4.858 v 2.383 h 1.22 c 0.393,0 0.715,0.322 0.715,0.716 0,0.396 -0.322,0.715 -0.715,0.715 h -1.22 v 2.986 h 1.22 c 0.393,0 0.715,0.322 0.715,0.716 0,0.397 -0.322,0.716 -0.715,0.716 h -1.22 v 2.986 h 1.22 c 0.393,0 0.715,0.322 0.715,0.716 0,0.396 -0.322,0.716 -0.715,0.716 h -1.22 v 2.385 h -4.858 v 1.586 c 0,0.396 -0.32,0.715 -0.716,0.715 -0.396,0 -0.715,-0.319 -0.715,-0.715 v -1.586 h -7.037 v 1.586 c 0,0.396 -0.32,0.715 -0.716,0.715 -0.396,0 -0.715,-0.319 -0.715,-0.715 v -1.586 h -7.037 v 1.586 c 0,0.396 -0.319,0.715 -0.715,0.715 -0.396,0 -0.716,-0.319 -0.716,-0.715 v -1.586 h -7.037 v 1.586 c 0,0.396 -0.319,0.715 -0.715,0.715 -0.396,0 -0.716,-0.319 -0.716,-0.715 v -1.586 h -4.859 v -2.385 h -1.219 c -0.396,0 -0.715,-0.32 -0.715,-0.716 0,-0.394 0.319,-0.716 0.715,-0.716 h 1.219 v -2.986 h -1.219 c -0.21,0 -0.398,-0.093 -0.529,-0.238 h -7.125 v 24.785 h 7.125 c 0.131,-0.146 0.319,-0.239 0.529,-0.239 h 1.219 v -2.986 h -1.219 c -0.396,0 -0.715,-0.322 -0.715,-0.716 0,-0.395 0.319,-0.716 0.715,-0.716 h 1.219 v -2.384 h 4.859 v -1.587 c 0,-0.394 0.32,-0.715 0.716,-0.715 0.396,0 0.715,0.321 0.715,0.715 v 1.587 h 7.037 v -1.587 c 0,-0.394 0.32,-0.715 0.716,-0.715 0.396,0 0.715,0.321 0.715,0.715 v 1.587 h 7.037 v -1.587 c 0,-0.394 0.319,-0.715 0.715,-0.715 0.396,0 0.716,0.321 0.716,0.715 v 1.587 h 7.037 v -1.587 c 0,-0.394 0.319,-0.715 0.715,-0.715 0.396,0 0.716,0.321 0.716,0.715 v 1.587 h 4.858 v 2.384 h 1.22 c 0.393,0 0.715,0.321 0.715,0.716 0,0.394 -0.322,0.716 -0.715,0.716 h -1.22 v 2.986 h 1.22 c 0.393,0 0.715,0.32 0.715,0.716 0,0.394 -0.322,0.715 -0.715,0.715 h -1.22 v 2.986 h 1.22 c 0.393,0 0.715,0.321 0.715,0.716 0,0.394 -0.322,0.716 -0.715,0.716 h -1.22 v 2.383 h -4.858 v 1.586 c 0,0.396 -0.32,0.716 -0.716,0.716 -0.396,0 -0.715,-0.32 -0.715,-0.716 v -1.586 h -7.037 v 1.586 c 0,0.396 -0.32,0.716 -0.716,0.716 -0.396,0 -0.715,-0.32 -0.715,-0.716 v -1.586 h -7.037 v 1.586 c 0,0.396 -0.319,0.716 -0.715,0.716 -0.396,0 -0.716,-0.32 -0.716,-0.716 v -1.586 h -7.037 v 1.586 c 0,0.396 -0.319,0.716 -0.715,0.716 -0.396,0 -0.716,-0.32 -0.716,-0.716 v -1.586 h -4.859 v -2.383 h -1.219 c -0.396,0 -0.715,-0.322 -0.715,-0.716 0,-0.395 0.319,-0.716 0.715,-0.716 h 1.219 v -2.986 h -1.219 c -0.21,0 -0.398,-0.093 -0.529,-0.238 h -7.125 v 7.32 l 4.601,4.6 v 3.628 h 57.35 c 0.177,-0.364 0.484,-0.652 0.864,-0.802 v -34.658 h -7.734 v -21.595 z m 18.901,41.068 v -34.825 h -12.799 v 14.398 h 4.67 v 24.609 l 2.982,2.981 v -7.163 z M -82.672,14.1 c 0,-1.921 -1.562,-3.484 -3.483,-3.484 -1.922,0 -3.485,1.563 -3.485,3.484 0,1.921 1.563,3.484 3.485,3.484 1.921,0 3.483,-1.563 3.483,-3.484 m -90.124,21.045 h 49.741 V 45.69 h 0.081 v 0.444 h 2.712 V 45.69 h 0.115 v 0.002 h 10.461 v -5.6 l -3.518,-3.519 c -0.014,0 -0.026,0.003 -0.041,0.003 -1.972,0 -3.577,-1.605 -3.577,-3.578 0,-1.811 1.354,-3.309 3.1,-3.542 v -5.813 h -6.54 v -0.955 h 60.245 v -8.112 h -21.248 c -0.241,2.488 -2.34,4.44 -4.89,4.44 -2.709,0 -4.916,-2.204 -4.916,-4.916 0,-2.71 2.207,-4.914 4.916,-4.914 2.55,0 4.649,1.951 4.89,4.436 h 21.749 v 9.544 h 4.444 v -0.478 h 7.27 v 5.417 c 2.486,0.242 4.437,2.343 4.437,4.893 0,2.466 -1.827,4.508 -4.198,4.856 v 7.838 h 15.256 v -7.838 c -2.373,-0.348 -4.2,-2.39 -4.2,-4.856 0,-2.71 2.204,-4.916 4.916,-4.916 2.71,0 4.914,2.206 4.914,4.916 0,2.466 -1.827,4.508 -4.198,4.856 v 7.838 h 15.905 v -7.129 h 5.884 v -4.849 h -9.939 v -44.05 l -3.936,-3.935 v -24.051 h -3.716 v 34.765 c 0.484,0.285 0.811,0.809 0.811,1.41 0,0.904 -0.735,1.636 -1.636,1.636 -0.647,0 -1.205,-0.374 -1.47,-0.921 h -26.1 v -0.889 h -4.444 v 0.889 H -79.13 l 5.574,6.522 h 14.04 v 1.431 h -14.7 l -6.798,-7.953 h -15.164 c -0.35,4.65 -4.069,8.369 -8.718,8.719 v 5.653 h -15.366 v -0.718 h -2.712 v 0.718 h -8.761 c -0.327,1.453 -1.627,2.542 -3.178,2.542 -1.633,0 -2.988,-1.211 -3.22,-2.781 h -14.259 v 7.244 c 1.417,0.21 2.536,1.329 2.746,2.743 h 26.672 v 0.955 h -26.672 c -0.232,1.572 -1.587,2.784 -3.223,2.784 -1.617,0 -2.958,-1.186 -3.213,-2.732 h -16.714 z m 0,10.547 h 7.321 v -4.259 c 0,-0.329 0.267,-0.597 0.596,-0.597 0.329,0 0.596,0.268 0.596,0.597 v 4.259 h 0.919 v 0.442 h 17.014 v -3.02 h -0.133 v -1.681 c 0,-0.329 0.267,-0.597 0.596,-0.597 0.329,0 0.596,0.268 0.596,0.597 v 4.259 h 5.331 V 45.69 h 7.252 v 0.002 h 5.312 V 45.69 h 2.91 v -9.114 h -48.31 z m 34.267,3.967 c 0,0.169 0.141,0.311 0.313,0.311 h 3.764 c 0.172,0 0.312,-0.142 0.312,-0.311 v -2.535 h -4.389 z m 12.564,0 c 0,0.169 0.14,0.311 0.312,0.311 h 3.764 c 0.172,0 0.31,-0.142 0.31,-0.311 v -2.535 h -4.386 z m 12.72,-18.807 c -1.183,0 -2.146,0.962 -2.146,2.146 0,1.183 0.963,2.147 2.146,2.147 1.186,0 2.147,-0.964 2.147,-2.147 0,-1.184 -0.961,-2.146 -2.147,-2.146 m 4.514,14.84 h 10.655 v -5.6 l -3.519,-3.519 c -0.014,0 -0.026,0.003 -0.04,0.003 -1.973,0 -3.578,-1.605 -3.578,-3.578 0,-1.811 1.355,-3.309 3.101,-3.542 v -5.813 h -10.656 v 5.813 c 1.749,0.233 3.102,1.731 3.102,3.542 0,1.558 -1,2.881 -2.393,3.37 l 3.328,3.33 z m 7.096,-14.84 c -1.183,0 -2.147,0.962 -2.147,2.146 0,1.183 0.964,2.147 2.147,2.147 1.183,0 2.147,-0.964 2.147,-2.147 0,-1.184 -0.964,-2.146 -2.147,-2.146 m 4.513,14.84 h 14.753 v -7.838 c -2.371,-0.348 -4.201,-2.39 -4.201,-4.856 0,-2.71 2.207,-4.916 4.916,-4.916 2.71,0 4.917,2.206 4.917,4.916 0,2.466 -1.83,4.508 -4.201,4.856 v 7.838 h 15.256 v -7.838 c -2.371,-0.348 -4.2,-2.39 -4.2,-4.856 0,-2.71 2.206,-4.916 4.916,-4.916 2.71,0 4.914,2.206 4.914,4.916 0,2.466 -1.827,4.508 -4.198,4.856 v 7.838 h 15.256 v -7.838 c -2.371,-0.348 -4.201,-2.39 -4.201,-4.856 0,-2.55 1.951,-4.651 4.439,-4.893 v -4.462 h -52.402 v 5.813 c 1.748,0.233 3.101,1.731 3.101,3.542 0,1.558 -1.002,2.881 -2.393,3.373 l 3.328,3.327 z m 15.468,-9.212 c 1.921,0 3.485,-1.562 3.485,-3.482 0,-1.923 -1.564,-3.485 -3.485,-3.485 -1.92,0 -3.485,1.562 -3.485,3.485 0,1.92 1.565,3.482 3.485,3.482 m 16.688,0 c 1.92,0 3.483,-1.562 3.483,-3.482 0,-1.923 -1.563,-3.485 -3.483,-3.485 -1.923,0 -3.485,1.562 -3.485,3.485 0,1.92 1.562,3.482 3.485,3.482 m 16.687,0 c 1.921,0 3.483,-1.562 3.483,-3.482 0,-1.923 -1.562,-3.485 -3.483,-3.485 -1.922,0 -3.485,1.562 -3.485,3.485 0,1.92 1.563,3.482 3.485,3.482 m 16.688,0 c 1.92,0 3.483,-1.562 3.483,-3.482 0,-1.923 -1.563,-3.485 -3.483,-3.485 -1.923,0 -3.485,1.562 -3.485,3.485 0,1.92 1.562,3.482 3.485,3.482 m 17.575,9.212 h 11.18 V 33.714 h -5.296 v 5.803 h -5.884 z m -179.93,-20.566 c 0,-0.789 -0.642,-1.431 -1.431,-1.431 h -8.27 c -0.788,0 -1.432,0.642 -1.432,1.431 V 45.69 h 2.467 V 30.055 c 0,-1.272 1.033,-2.305 2.304,-2.305 h 1.591 c 1.272,0 2.307,1.033 2.307,2.305 V 45.69 h 2.464 z m -7.235,20.564 h 3.34 V 30.055 c 0,-0.483 -0.394,-0.873 -0.876,-0.873 h -1.591 c -0.482,0 -0.873,0.39 -0.873,0.873 z m -13.317,-2.357 h -15.228 V 30.87 l -2.12,-1.374 v 16.196 h 19.707 z M -0.856,5.944 h -0.549 v 41.18 h -29.47 v 1.166 c 0,0.394 -0.322,0.716 -0.716,0.716 -0.396,0 -0.716,-0.322 -0.716,-0.716 v -1.166 h -15.256 v 1.166 c 0,0.394 -0.322,0.716 -0.716,0.716 -0.395,0 -0.715,-0.322 -0.715,-0.716 V 47.124 H -64.25 v 1.166 c 0,0.394 -0.32,0.716 -0.716,0.716 -0.396,0 -0.716,-0.322 -0.716,-0.716 v -1.166 h -15.256 v 1.166 c 0,0.394 -0.32,0.716 -0.716,0.716 -0.396,0 -0.715,-0.322 -0.715,-0.716 v -1.166 h -37.778 v 2.535 c 0,0.959 -0.781,1.741 -1.742,1.741 h -3.764 c -0.961,0 -1.743,-0.782 -1.743,-1.741 v -2.535 h -5.312 v 2.535 c 0,0.959 -0.783,1.741 -1.744,1.741 h -3.764 c -0.961,0 -1.744,-0.782 -1.744,-1.741 v -2.535 h -31.982 v 2.332 c 0,0.394 -0.319,0.716 -0.715,0.716 h -1.708 c -0.396,0 -0.716,-0.322 -0.716,-0.716 v -2.332 h -58.196 V 10.548 h 1.431 v 17.813 l 3.075,1.992 v 12.026 h 10.335 v -2.307 h -8.826 V 32.76 c 0,-0.266 0.215,-0.478 0.477,-0.478 0.265,0 0.477,0.212 0.477,0.478 v 6.358 h 8.826 v 3.261 h 3.38 l 3.311,3.313 h 4.281 v -2.836 h -1.827 c -0.395,0 -0.715,-0.319 -0.715,-0.715 0,-0.396 0.32,-0.716 0.715,-0.716 h 1.827 v -3.577 h -1.827 c -0.395,0 -0.715,-0.321 -0.715,-0.716 0,-0.397 0.32,-0.716 0.715,-0.716 h 1.827 v -3.578 h -1.827 c -0.395,0 -0.715,-0.319 -0.715,-0.716 0,-0.395 0.32,-0.715 0.715,-0.715 h 1.827 v -3.578 h -1.827 c -0.395,0 -0.715,-0.319 -0.715,-0.716 0,-0.395 0.32,-0.716 0.715,-0.716 h 1.827 v -1.271 c 0,-1.579 1.286,-2.862 2.863,-2.862 h 8.27 c 1.579,0 2.862,1.283 2.862,2.862 v 1.271 h 1.829 c 0.396,0 0.716,0.321 0.716,0.716 0,0.397 -0.32,0.716 -0.716,0.716 h -1.829 v 3.578 h 1.829 c 0.396,0 0.716,0.32 0.716,0.715 0,0.397 -0.32,0.716 -0.716,0.716 h -1.829 v 3.578 h 1.829 c 0.396,0 0.716,0.319 0.716,0.716 0,0.395 -0.32,0.716 -0.716,0.716 h -1.829 v 3.577 h 1.829 c 0.396,0 0.716,0.32 0.716,0.716 0,0.396 -0.32,0.715 -0.716,0.715 h -1.829 v 2.836 h 10.402 v 0.442 h 3.309 v -0.442 h 1.157 v -34.19 h -1.157 v -0.954 h 1.157 V 6.401 l 3.241,-3.238 c 0.052,-0.053 0.115,-0.089 0.179,-0.112 V 0.238 h -40.87 v 6.798 h -4.005 v -14.65 h -6.099 v 0.777 h -6.645 v 1.589 h 6.645 v 1.432 h -6.645 v 1.273 h 6.645 v 1.431 h -6.645 v 1.271 h 6.645 v 1.432 h -6.645 v 1.271 h 6.645 v 1.431 h -6.645 v 1.591 h 6.645 v 1.152 h -8.076 v 0.279 h -0.003 V -8.268 h 0.003 v -89.568 h -1.477 c -1.262,0 -2.287,-1.025 -2.287,-2.287 v -3.656 c 0,-1.26 1.025,-2.285 2.287,-2.285 h 1.477 v -7.836 h 194.816 v -1.794 c 0,-0.566 0.458,-1.026 1.026,-1.026 h 3.764 c 0.567,0 1.028,0.46 1.028,1.026 v 1.794 h 4.823 v -1.794 c 0,-0.566 0.458,-1.026 1.026,-1.026 h 3.766 c 0.566,0 1.026,0.46 1.026,1.026 v 1.794 H -1.405 V -2.285 h 0.549 c 1.261,0 2.287,1.025 2.287,2.285 v 3.659 c 0,1.259 -1.026,2.285 -2.287,2.285"
             style="fill:#000000;fill-opacity:1;fill-rule:nonzero;stroke:none"
             id="path174" /><g
             id="g4252"
             transform="matrix(-0.18954657,0,0,0.21934595,229.12481,167.38644)"
             style="stroke-width:0.4;stroke-miterlimit:4;stroke-dasharray:none"><g
               id="g4"
               style="stroke-width:1.47129;stroke-miterlimit:4;stroke-dasharray:none">
	<path
   d="m 383.654,473.81 -6.681,21.495 c -0.755,2.447 -3.032,4.115 -5.596,4.115 h -0.006 l -124.414,-0.182 c -2.451,0 -4.628,-1.522 -5.486,-3.807 -0.862,-2.283 -0.213,-4.858 1.632,-6.467 -0.018,0 0.993,-1.113 0.911,-3.111 -0.085,-1.961 -1.315,-6.187 -8.574,-12.403 -2.268,-2.149 -51.055,-48.445 -71.843,-84.657 -5.742,-8.08 -48.241,-69.216 -38.06,-96.1 2.408,-6.369 7.419,-10.644 14.529,-12.379 3.206,-1.139 6.479,-1.717 9.733,-1.717 18.669,0 32.516,18.328 42.624,31.706 2.226,2.959 5.033,6.667 7.134,8.976 0.91,-4.074 1.888,-13.208 1.79,-33.686 0,-0.207 0.006,-0.426 0.03,-0.646 0.037,-0.305 3.105,-30.957 3.285,-128.828 -4.23377,-58.252963 43.02908,-65.297493 49.211,-3.973 0.124,1.184 0.249,2.415 0.387,3.742 1.142,11.305 2.368,26.101 3.659,41.763 1.692,20.584 3.897,47.246 5.614,59.542 5.078,-2.594 12.306,-5.352 20.137,-5.352 8.616,0 20.222,3.349 28.832,18.371 4.007,-1.529 9.768,-3.179 16.1,-3.179 10.218,0 23.748,4.183 31.664,23.479 7.185,1.279 23.047,5.389 33.381,17.756 7.246,8.665 10.363,19.547 9.292,32.37 0.899,8.046 8.122,80.33 -19.285,133.172 z m 7.55,-132.372 c -0.049,-0.42 -0.049,-0.84 -0.012,-1.261 0.92,-9.84 -1.267,-18.023 -6.516,-24.332 -10.235,-12.331 -29.015,-14.157 -29.21,-14.176 -2.302,-0.213 -4.286,-1.747 -5.035,-3.927 -4.402,-12.781 -11.552,-18.986 -21.854,-18.986 -8.378,0 -15.795,4.158 -15.868,4.201 -1.425,0.816 -3.16,0.999 -4.725,0.481 -1.571,-0.512 -2.862,-1.656 -3.532,-3.167 -5.042,-11.24 -11.85,-16.708 -20.807,-16.708 -10.382,0 -20.21,7.331 -20.308,7.41 -1.491,1.145 -3.446,1.504 -5.236,0.968 -5.413,-1.607 -5.985,-1.777 -11.886,-73.328 -1.34,-16.146 -2.887,-34.924 -4.196,-46.829 -0.076,-0.387 -0.137,-0.749 -0.131,-1.136 -0.53,-4.683 -1.017,-8.205 -1.428,-9.819 -0.38,-0.587 -0.648,-1.248 -0.804,-1.951 -1.212,-5.624 -8.948,-14.237 -14.018,-14.237 -3.318,0 -7.721,5.913 -9.28,22.56 -0.006,101.366 -2.947,134.848 -3.321,138.647 0.131,31.943 -2.128,40.511 -6.086,44.487 -1.677,1.687 -3.766,2.575 -6.049,2.575 -6.129,0 -10.799,-6.18 -17.869,-15.533 -8.625,-11.423 -20.429,-27.048 -33.265,-27.048 -1.985,0 -4.022,0.378 -6.038,1.12 -0.225,0.08 -0.459,0.146 -0.697,0.207 -4.472,1.035 -5.849,3.312 -6.567,5.188 -6.092,16.1 19.342,60.916 36.809,85.376 0.119,0.152 -0.101,-0.177 0,0 19.848,34.727 69.499,82.051 69.989,82.514 8.162,6.99 12.415,14.213 12.452,21.275 0,0.524 -0.024,1.023 -0.061,1.511 l 111.386,0.164 5.56,-17.865 c 0.104,-0.335 0.23,-0.664 0.396,-0.98 27.048,-51.579 18.31,-126.647 18.207,-127.401 z"
   id="path4943"
   sodipodi:nodetypes="ccscccccccccscccccccccscscccccccccscccscccccccscccscscccccccccccc"
   style="stroke-width:0.1;stroke-miterlimit:1;stroke-dasharray:none" />
</g><g
               id="g6"
               style="stroke-width:0.4;stroke-miterlimit:4;stroke-dasharray:none">
</g><g
               id="g8-2"
               style="stroke-width:0.4;stroke-miterlimit:4;stroke-dasharray:none">
</g><g
               id="g10-4"
               style="stroke-width:0.4;stroke-miterlimit:4;stroke-dasharray:none">
</g><g
               id="g12"
               style="stroke-width:0.4;stroke-miterlimit:4;stroke-dasharray:none">
</g><g
               id="g14-4"
               style="stroke-width:0.4;stroke-miterlimit:4;stroke-dasharray:none">
</g><g
               id="g16"
               style="stroke-width:0.4;stroke-miterlimit:4;stroke-dasharray:none">
</g><g
               id="g18-7"
               style="stroke-width:0.4;stroke-miterlimit:4;stroke-dasharray:none">
</g><g
               id="g20"
               style="stroke-width:0.4;stroke-miterlimit:4;stroke-dasharray:none">
</g><g
               id="g22-0"
               style="stroke-width:0.4;stroke-miterlimit:4;stroke-dasharray:none">
</g><g
               id="g24"
               style="stroke-width:0.4;stroke-miterlimit:4;stroke-dasharray:none">
</g><g
               id="g26-8"
               style="stroke-width:0.4;stroke-miterlimit:4;stroke-dasharray:none">
</g><g
               id="g28"
               style="stroke-width:0.4;stroke-miterlimit:4;stroke-dasharray:none">
</g><g
               id="g30-7"
               style="stroke-width:0.4;stroke-miterlimit:4;stroke-dasharray:none">
</g><g
               id="g32"
               style="stroke-width:0.4;stroke-miterlimit:4;stroke-dasharray:none">
</g><g
               id="g34-4"
               style="stroke-width:0.4;stroke-miterlimit:4;stroke-dasharray:none">
</g></g></g><g
           id="g176"
           transform="translate(158.3043,139.0845)"><path
             d="m 0,0 c 0,-1.179 -0.958,-2.137 -2.137,-2.137 h -23.256 c -1.179,0 -2.137,0.958 -2.137,2.137 v 23.257 c 0,1.178 0.958,2.137 2.137,2.137 H -2.137 C -0.958,25.394 0,24.435 0,23.257 Z m -2.137,26.586 h -23.256 c -1.836,0 -3.33,-1.493 -3.33,-3.329 V 0 c 0,-1.836 1.494,-3.33 3.33,-3.33 h 23.256 c 1.836,0 3.33,1.494 3.33,3.33 v 23.257 c 0,1.836 -1.494,3.329 -3.33,3.329"
             style="fill:#000000;fill-opacity:1;fill-rule:nonzero;stroke:none"
             id="path178" /></g><g
           id="g180"
           transform="translate(154.4879,141.4498)"><path
             d="m 0,0 h -19.897 c -0.379,0 -0.686,-0.307 -0.686,-0.686 0,-0.378 0.307,-0.685 0.686,-0.685 H 0 c 0.379,0 0.686,0.307 0.686,0.685 C 0.686,-0.307 0.379,0 0,0"
             style="fill:#000000;fill-opacity:1;fill-rule:nonzero;stroke:none"
             id="path182" /></g><path
           d="m 135.425,161.725 h -1.073 v -2.803 h 1.073 z"
           style="fill:#000000;fill-opacity:1;fill-rule:nonzero;stroke:none"
           id="path184" /><path
           d="m 138.825,161.725 h -1.074 v -2.803 h 1.074 z"
           style="fill:#000000;fill-opacity:1;fill-rule:nonzero;stroke:none"
           id="path186" /><path
           d="m 141.15,161.725 h -1.073 v -2.803 h 1.073 z"
           style="fill:#000000;fill-opacity:1;fill-rule:nonzero;stroke:none"
           id="path188" /><path
           d="m 146.577,161.725 h -1.073 v -2.803 h 1.073 z"
           style="fill:#000000;fill-opacity:1;fill-rule:nonzero;stroke:none"
           id="path190" /><path
           d="m 148.724,161.725 h -1.074 v -2.803 h 1.074 z"
           style="fill:#000000;fill-opacity:1;fill-rule:nonzero;stroke:none"
           id="path192" /><path
           d="m 154.727,161.725 h -1.074 v -2.803 h 1.074 z"
           style="fill:#000000;fill-opacity:1;fill-rule:nonzero;stroke:none"
           id="path194" /><g
           id="g196"
           transform="translate(135.043,217.8394)"><path
             d="m 0,0 c 0.329,0 0.596,0.267 0.596,0.596 v 4.889 c 0,0.33 -0.267,0.597 -0.596,0.597 -0.33,0 -0.597,-0.267 -0.597,-0.597 V 0.596 C -0.597,0.267 -0.33,0 0,0"
             style="fill:#000000;fill-opacity:1;fill-rule:nonzero;stroke:none"
             id="path198" /></g><g
           id="g200"
           transform="translate(137.7559,217.8394)"><path
             d="M 0,0 C 0.33,0 0.597,0.267 0.597,0.596 V 5.485 C 0.597,5.815 0.33,6.082 0,6.082 -0.329,6.082 -0.596,5.815 -0.596,5.485 V 0.596 C -0.596,0.267 -0.329,0 0,0"
             style="fill:#000000;fill-opacity:1;fill-rule:nonzero;stroke:none"
             id="path202" /></g><g
           id="g204"
           transform="translate(140.4693,217.8394)"><path
             d="M 0,0 C 0.33,0 0.597,0.267 0.597,0.596 V 5.485 C 0.597,5.815 0.33,6.082 0,6.082 -0.329,6.082 -0.596,5.815 -0.596,5.485 V 0.596 C -0.596,0.267 -0.329,0 0,0"
             style="fill:#000000;fill-opacity:1;fill-rule:nonzero;stroke:none"
             id="path206" /></g><g
           id="g208"
           transform="translate(143.1827,217.8394)"><path
             d="M 0,0 C 0.33,0 0.596,0.267 0.596,0.596 V 5.485 C 0.596,5.815 0.33,6.082 0,6.082 -0.33,6.082 -0.596,5.815 -0.596,5.485 V 0.596 C -0.596,0.267 -0.33,0 0,0"
             style="fill:#000000;fill-opacity:1;fill-rule:nonzero;stroke:none"
             id="path210" /></g><g
           id="g212"
           transform="translate(145.8961,217.8394)"><path
             d="m 0,0 c 0.329,0 0.596,0.267 0.596,0.596 v 4.889 c 0,0.33 -0.267,0.597 -0.596,0.597 -0.33,0 -0.596,-0.267 -0.596,-0.597 V 0.596 C -0.596,0.267 -0.33,0 0,0"
             style="fill:#000000;fill-opacity:1;fill-rule:nonzero;stroke:none"
             id="path214" /></g><g
           id="g216"
           transform="translate(148.6095,217.8394)"><path
             d="m 0,0 c 0.329,0 0.596,0.267 0.596,0.596 v 4.889 c 0,0.33 -0.267,0.597 -0.596,0.597 -0.33,0 -0.597,-0.267 -0.597,-0.597 V 0.596 C -0.597,0.267 -0.33,0 0,0"
             style="fill:#000000;fill-opacity:1;fill-rule:nonzero;stroke:none"
             id="path218" /></g><g
           id="g220"
           transform="translate(151.3223,217.8394)"><path
             d="M 0,0 C 0.33,0 0.597,0.267 0.597,0.596 V 5.485 C 0.597,5.815 0.33,6.082 0,6.082 -0.329,6.082 -0.596,5.815 -0.596,5.485 V 0.596 C -0.596,0.267 -0.329,0 0,0"
             style="fill:#000000;fill-opacity:1;fill-rule:nonzero;stroke:none"
             id="path222" /></g><g
           id="g224"
           transform="translate(154.0357,217.8394)"><path
             d="M 0,0 C 0.33,0 0.596,0.267 0.596,0.596 V 5.485 C 0.596,5.815 0.33,6.082 0,6.082 -0.329,6.082 -0.596,5.815 -0.596,5.485 V 0.596 C -0.596,0.267 -0.329,0 0,0"
             style="fill:#000000;fill-opacity:1;fill-rule:nonzero;stroke:none"
             id="path226" /></g><g
           id="g228"
           transform="translate(308.9859,172.5875)"><path
             d="m 0,0 h -3.131 c -0.329,0 -0.597,-0.267 -0.597,-0.597 0,-0.329 0.268,-0.595 0.597,-0.595 H 0 c 0.329,0 0.596,0.266 0.596,0.595 C 0.596,-0.267 0.329,0 0,0"
             style="fill:#000000;fill-opacity:1;fill-rule:nonzero;stroke:none"
             id="path230" /></g><g
           id="g232"
           transform="translate(308.9859,169.8746)"><path
             d="m 0,0 h -3.131 c -0.329,0 -0.597,-0.268 -0.597,-0.597 0,-0.329 0.268,-0.596 0.597,-0.596 H 0 c 0.329,0 0.596,0.267 0.596,0.596 C 0.596,-0.268 0.329,0 0,0"
             style="fill:#000000;fill-opacity:1;fill-rule:nonzero;stroke:none"
             id="path234" /></g><g
           id="g236"
           transform="translate(308.9859,167.1607)"><path
             d="m 0,0 h -3.131 c -0.329,0 -0.597,-0.267 -0.597,-0.596 0,-0.33 0.268,-0.596 0.597,-0.596 H 0 c 0.329,0 0.596,0.266 0.596,0.596 C 0.596,-0.267 0.329,0 0,0"
             style="fill:#000000;fill-opacity:1;fill-rule:nonzero;stroke:none"
             id="path238" /></g><g
           id="g240"
           transform="translate(308.9859,164.4478)"><path
             d="m 0,0 h -3.131 c -0.329,0 -0.597,-0.268 -0.597,-0.597 0,-0.329 0.268,-0.595 0.597,-0.595 H 0 c 0.329,0 0.596,0.266 0.596,0.595 C 0.596,-0.268 0.329,0 0,0"
             style="fill:#000000;fill-opacity:1;fill-rule:nonzero;stroke:none"
             id="path242" /></g><g
           id="g244"
           transform="translate(308.9859,161.7339)"><path
             d="m 0,0 h -3.131 c -0.329,0 -0.597,-0.267 -0.597,-0.596 0,-0.329 0.268,-0.596 0.597,-0.596 H 0 c 0.329,0 0.596,0.267 0.596,0.596 C 0.596,-0.267 0.329,0 0,0"
             style="fill:#000000;fill-opacity:1;fill-rule:nonzero;stroke:none"
             id="path246" /></g><g
           id="g248"
           transform="translate(308.9859,159.0211)"><path
             d="m 0,0 h -3.131 c -0.329,0 -0.597,-0.267 -0.597,-0.597 0,-0.329 0.268,-0.595 0.597,-0.595 H 0 c 0.329,0 0.596,0.266 0.596,0.595 C 0.596,-0.267 0.329,0 0,0"
             style="fill:#000000;fill-opacity:1;fill-rule:nonzero;stroke:none"
             id="path250" /></g><g
           id="g252"
           transform="translate(308.9859,156.3082)"><path
             d="m 0,0 h -3.131 c -0.329,0 -0.597,-0.268 -0.597,-0.597 0,-0.329 0.268,-0.596 0.597,-0.596 H 0 c 0.329,0 0.596,0.267 0.596,0.596 C 0.596,-0.268 0.329,0 0,0"
             style="fill:#000000;fill-opacity:1;fill-rule:nonzero;stroke:none"
             id="path254" /></g><g
           id="g256"
           transform="translate(308.9859,153.5943)"><path
             d="m 0,0 h -3.131 c -0.329,0 -0.597,-0.267 -0.597,-0.596 0,-0.33 0.268,-0.596 0.597,-0.596 H 0 c 0.329,0 0.596,0.266 0.596,0.596 C 0.596,-0.267 0.329,0 0,0"
             style="fill:#000000;fill-opacity:1;fill-rule:nonzero;stroke:none"
             id="path258" /></g><g
           id="g260"
           transform="translate(206.6402,240.0367)"><path
             d="M 0,0 H 3.131 C 3.46,0 3.727,0.268 3.727,0.597 3.727,0.926 3.46,1.193 3.131,1.193 H 0 C -0.33,1.193 -0.597,0.926 -0.597,0.597 -0.597,0.268 -0.33,0 0,0"
             style="fill:#000000;fill-opacity:1;fill-rule:nonzero;stroke:none"
             id="path262" /></g><g
           id="g264"
           transform="translate(206.6402,237.3238)"><path
             d="M 0,0 H 3.131 C 3.46,0 3.727,0.267 3.727,0.597 3.727,0.926 3.46,1.192 3.131,1.192 H 0 C -0.33,1.192 -0.597,0.926 -0.597,0.597 -0.597,0.267 -0.33,0 0,0"
             style="fill:#000000;fill-opacity:1;fill-rule:nonzero;stroke:none"
             id="path266" /></g><g
           id="g268"
           transform="translate(206.6402,234.6109)"><path
             d="m 0,0 h 3.131 c 0.329,0 0.596,0.267 0.596,0.596 0,0.33 -0.267,0.596 -0.596,0.596 H 0 C -0.33,1.192 -0.597,0.926 -0.597,0.596 -0.597,0.267 -0.33,0 0,0"
             style="fill:#000000;fill-opacity:1;fill-rule:nonzero;stroke:none"
             id="path270" /></g><g
           id="g272"
           transform="translate(206.6402,231.897)"><path
             d="M 0,0 H 3.131 C 3.46,0 3.727,0.268 3.727,0.597 3.727,0.926 3.46,1.193 3.131,1.193 H 0 C -0.33,1.193 -0.597,0.926 -0.597,0.597 -0.597,0.268 -0.33,0 0,0"
             style="fill:#000000;fill-opacity:1;fill-rule:nonzero;stroke:none"
             id="path274" /></g><g
           id="g276"
           transform="translate(206.6402,229.1841)"><path
             d="M 0,0 H 3.131 C 3.46,0 3.727,0.267 3.727,0.597 3.727,0.926 3.46,1.192 3.131,1.192 H 0 C -0.33,1.192 -0.597,0.926 -0.597,0.597 -0.597,0.267 -0.33,0 0,0"
             style="fill:#000000;fill-opacity:1;fill-rule:nonzero;stroke:none"
             id="path278" /></g><g
           id="g280"
           transform="translate(206.6402,226.4713)"><path
             d="M 0,0 H 3.131 C 3.46,0 3.727,0.267 3.727,0.596 3.727,0.925 3.46,1.192 3.131,1.192 H 0 C -0.33,1.192 -0.597,0.925 -0.597,0.596 -0.597,0.267 -0.33,0 0,0"
             style="fill:#000000;fill-opacity:1;fill-rule:nonzero;stroke:none"
             id="path282" /></g><g
           id="g284"
           transform="translate(206.6402,223.7574)"><path
             d="M 0,0 H 3.131 C 3.46,0 3.727,0.268 3.727,0.597 3.727,0.926 3.46,1.192 3.131,1.192 H 0 C -0.33,1.192 -0.597,0.926 -0.597,0.597 -0.597,0.268 -0.33,0 0,0"
             style="fill:#000000;fill-opacity:1;fill-rule:nonzero;stroke:none"
             id="path286" /></g><g
           id="g288"
           transform="translate(210.3673,221.6402)"><path
             d="m 0,0 c 0,0.33 -0.267,0.597 -0.596,0.597 h -3.131 c -0.33,0 -0.597,-0.267 -0.597,-0.597 0,-0.329 0.267,-0.596 0.597,-0.596 h 3.131 C -0.267,-0.596 0,-0.329 0,0"
             style="fill:#000000;fill-opacity:1;fill-rule:nonzero;stroke:none"
             id="path290" /></g><g
           id="g292"
           transform="translate(288.4429,249.2173)"><path
             d="m 0,0 c 0.102,-0.066 0.216,-0.099 0.329,-0.099 0.193,0 0.383,0.094 0.498,0.268 L 3.212,3.775 C 3.394,4.051 3.318,4.421 3.043,4.603 2.769,4.784 2.398,4.708 2.217,4.434 L -0.168,0.827 C -0.35,0.552 -0.274,0.182 0,0"
             style="fill:#000000;fill-opacity:1;fill-rule:nonzero;stroke:none"
             id="path294" /></g><g
           id="g296"
           transform="translate(291.1563,249.2173)"><path
             d="m 0,0 c 0.102,-0.066 0.215,-0.099 0.329,-0.099 0.193,0 0.383,0.094 0.497,0.268 L 3.211,3.775 C 3.394,4.051 3.318,4.421 3.043,4.603 2.769,4.784 2.398,4.708 2.217,4.434 L -0.168,0.827 C -0.35,0.552 -0.274,0.182 0,0"
             style="fill:#000000;fill-opacity:1;fill-rule:nonzero;stroke:none"
             id="path298" /></g><g
           id="g300"
           transform="translate(293.8697,249.2173)"><path
             d="m 0,0 c 0.102,-0.066 0.215,-0.099 0.329,-0.099 0.193,0 0.382,0.094 0.497,0.268 L 3.211,3.775 C 3.393,4.051 3.318,4.421 3.043,4.603 2.768,4.784 2.398,4.708 2.217,4.434 L -0.168,0.827 C -0.35,0.552 -0.274,0.182 0,0"
             style="fill:#000000;fill-opacity:1;fill-rule:nonzero;stroke:none"
             id="path302" /></g><g
           id="g304"
           transform="translate(296.5831,249.2173)"><path
             d="m 0,0 c 0.101,-0.066 0.215,-0.099 0.328,-0.099 0.193,0 0.383,0.094 0.498,0.268 L 3.211,3.775 C 3.393,4.051 3.318,4.421 3.043,4.603 2.768,4.784 2.398,4.708 2.217,4.434 L -0.168,0.827 C -0.35,0.552 -0.275,0.182 0,0"
             style="fill:#000000;fill-opacity:1;fill-rule:nonzero;stroke:none"
             id="path306" /></g><g
           id="g308"
           transform="translate(299.2964,249.2173)"><path
             d="m 0,0 c 0.101,-0.066 0.215,-0.099 0.328,-0.099 0.193,0 0.383,0.094 0.498,0.268 L 3.211,3.775 C 3.393,4.051 3.317,4.421 3.043,4.603 2.768,4.784 2.398,4.708 2.217,4.434 L -0.168,0.827 C -0.35,0.552 -0.275,0.182 0,0"
             style="fill:#000000;fill-opacity:1;fill-rule:nonzero;stroke:none"
             id="path310" /></g><g
           id="g312"
           transform="translate(302.0093,249.2173)"><path
             d="m 0,0 c 0.102,-0.066 0.216,-0.099 0.329,-0.099 0.193,0 0.383,0.094 0.497,0.268 L 3.212,3.775 C 3.394,4.051 3.318,4.421 3.043,4.603 2.769,4.784 2.398,4.708 2.217,4.434 L -0.168,0.827 C -0.35,0.552 -0.274,0.182 0,0"
             style="fill:#000000;fill-opacity:1;fill-rule:nonzero;stroke:none"
             id="path314" /></g><g
           id="g316"
           transform="translate(304.7227,249.2173)"><path
             d="m 0,0 c 0.102,-0.066 0.215,-0.099 0.329,-0.099 0.193,0 0.383,0.094 0.497,0.268 L 3.211,3.775 C 3.393,4.051 3.318,4.421 3.043,4.603 2.769,4.784 2.398,4.708 2.217,4.434 L -0.168,0.827 C -0.35,0.552 -0.274,0.182 0,0"
             style="fill:#000000;fill-opacity:1;fill-rule:nonzero;stroke:none"
             id="path318" /></g><g
           id="g320"
           transform="translate(307.4361,249.2173)"><path
             d="m 0,0 c 0.101,-0.066 0.215,-0.099 0.329,-0.099 0.193,0 0.382,0.094 0.497,0.268 L 3.211,3.775 C 3.393,4.051 3.318,4.421 3.043,4.603 2.768,4.784 2.398,4.708 2.217,4.434 L -0.168,0.827 C -0.35,0.552 -0.275,0.182 0,0"
             style="fill:#000000;fill-opacity:1;fill-rule:nonzero;stroke:none"
             id="path322" /></g><g
           id="g324"
           transform="translate(112.5616,190.483)"><path
             d="m 0,0 h 2.445 c 0.329,0 0.596,0.267 0.596,0.596 0,0.329 -0.267,0.596 -0.596,0.596 H 0 C -0.33,1.192 -0.597,0.925 -0.597,0.596 -0.597,0.267 -0.33,0 0,0"
             style="fill:#000000;fill-opacity:1;fill-rule:nonzero;stroke:none"
             id="path326" /></g><g
           id="g328"
           transform="translate(112.5616,187.7691)"><path
             d="m 0,0 h 2.445 c 0.329,0 0.596,0.268 0.596,0.597 0,0.329 -0.267,0.595 -0.596,0.595 H 0 C -0.33,1.192 -0.597,0.926 -0.597,0.597 -0.597,0.268 -0.33,0 0,0"
             style="fill:#000000;fill-opacity:1;fill-rule:nonzero;stroke:none"
             id="path330" /></g><g
           id="g332"
           transform="translate(112.5616,185.0562)"><path
             d="m 0,0 h 2.445 c 0.329,0 0.596,0.267 0.596,0.596 0,0.33 -0.267,0.596 -0.596,0.596 H 0 C -0.33,1.192 -0.597,0.926 -0.597,0.596 -0.597,0.267 -0.33,0 0,0"
             style="fill:#000000;fill-opacity:1;fill-rule:nonzero;stroke:none"
             id="path334" /></g><g
           id="g336"
           transform="translate(112.5616,182.3423)"><path
             d="m 0,0 h 2.445 c 0.329,0 0.596,0.268 0.596,0.597 0,0.329 -0.267,0.596 -0.596,0.596 H 0 C -0.33,1.193 -0.597,0.926 -0.597,0.597 -0.597,0.268 -0.33,0 0,0"
             style="fill:#000000;fill-opacity:1;fill-rule:nonzero;stroke:none"
             id="path338" /></g><g
           id="g340"
           transform="translate(112.5616,179.6295)"><path
             d="m 0,0 h 2.445 c 0.329,0 0.596,0.267 0.596,0.597 0,0.329 -0.267,0.595 -0.596,0.595 H 0 C -0.33,1.192 -0.597,0.926 -0.597,0.597 -0.597,0.267 -0.33,0 0,0"
             style="fill:#000000;fill-opacity:1;fill-rule:nonzero;stroke:none"
             id="path342" /></g><g
           id="g344"
           transform="translate(112.5616,176.9166)"><path
             d="m 0,0 h 2.445 c 0.329,0 0.596,0.267 0.596,0.596 0,0.33 -0.267,0.596 -0.596,0.596 H 0 C -0.33,1.192 -0.597,0.926 -0.597,0.596 -0.597,0.267 -0.33,0 0,0"
             style="fill:#000000;fill-opacity:1;fill-rule:nonzero;stroke:none"
             id="path346" /></g><g
           id="g348"
           transform="translate(112.5616,174.2027)"><path
             d="m 0,0 h 2.445 c 0.329,0 0.596,0.268 0.596,0.597 0,0.329 -0.267,0.595 -0.596,0.595 H 0 C -0.33,1.192 -0.597,0.926 -0.597,0.597 -0.597,0.268 -0.33,0 0,0"
             style="fill:#000000;fill-opacity:1;fill-rule:nonzero;stroke:none"
             id="path350" /></g><g
           id="g352"
           transform="translate(112.5616,171.4898)"><path
             d="m 0,0 h 2.445 c 0.329,0 0.596,0.267 0.596,0.596 0,0.33 -0.267,0.596 -0.596,0.596 H 0 C -0.33,1.192 -0.597,0.926 -0.597,0.596 -0.597,0.267 -0.33,0 0,0"
             style="fill:#000000;fill-opacity:1;fill-rule:nonzero;stroke:none"
             id="path354" /></g><g
           id="g356"
           transform="translate(173.3453,235.898)"><path
             d="M 0,0 C 0.33,0 0.596,0.267 0.596,0.596 V 3.041 C 0.596,3.37 0.33,3.638 0,3.638 -0.33,3.638 -0.596,3.37 -0.596,3.041 V 0.596 C -0.596,0.267 -0.33,0 0,0"
             style="fill:#000000;fill-opacity:1;fill-rule:nonzero;stroke:none"
             id="path358" /></g><g
           id="g360"
           transform="translate(176.0587,235.898)"><path
             d="M 0,0 C 0.329,0 0.596,0.267 0.596,0.596 V 3.041 C 0.596,3.37 0.329,3.638 0,3.638 -0.33,3.638 -0.596,3.37 -0.596,3.041 V 0.596 C -0.596,0.267 -0.33,0 0,0"
             style="fill:#000000;fill-opacity:1;fill-rule:nonzero;stroke:none"
             id="path362" /></g><g
           id="g364"
           transform="translate(181.4849,235.898)"><path
             d="M 0,0 C 0.33,0 0.597,0.267 0.597,0.596 V 3.041 C 0.597,3.37 0.33,3.638 0,3.638 -0.329,3.638 -0.596,3.37 -0.596,3.041 V 0.596 C -0.596,0.267 -0.329,0 0,0"
             style="fill:#000000;fill-opacity:1;fill-rule:nonzero;stroke:none"
             id="path366" /></g><g
           id="g368"
           transform="translate(184.1983,235.898)"><path
             d="M 0,0 C 0.33,0 0.596,0.267 0.596,0.596 V 3.041 C 0.596,3.37 0.33,3.638 0,3.638 -0.329,3.638 -0.596,3.37 -0.596,3.041 V 0.596 C -0.596,0.267 -0.329,0 0,0"
             style="fill:#000000;fill-opacity:1;fill-rule:nonzero;stroke:none"
             id="path370" /></g><g
           id="g372"
           transform="translate(186.9117,235.898)"><path
             d="M 0,0 C 0.329,0 0.596,0.267 0.596,0.596 V 3.041 C 0.596,3.37 0.329,3.638 0,3.638 -0.33,3.638 -0.596,3.37 -0.596,3.041 V 0.596 C -0.596,0.267 -0.33,0 0,0"
             style="fill:#000000;fill-opacity:1;fill-rule:nonzero;stroke:none"
             id="path374" /></g><g
           id="g376"
           transform="translate(189.6251,235.898)"><path
             d="M 0,0 C 0.329,0 0.596,0.267 0.596,0.596 V 3.041 C 0.596,3.37 0.329,3.638 0,3.638 -0.33,3.638 -0.597,3.37 -0.597,3.041 V 0.596 C -0.597,0.267 -0.33,0 0,0"
             style="fill:#000000;fill-opacity:1;fill-rule:nonzero;stroke:none"
             id="path378" /></g><g
           id="g380"
           transform="translate(192.338,235.898)"><path
             d="M 0,0 C 0.33,0 0.597,0.267 0.597,0.596 V 3.041 C 0.597,3.37 0.33,3.638 0,3.638 -0.329,3.638 -0.596,3.37 -0.596,3.041 V 0.596 C -0.596,0.267 -0.329,0 0,0"
             style="fill:#000000;fill-opacity:1;fill-rule:nonzero;stroke:none"
             id="path382" /></g><g
           id="g384"
           transform="translate(131.8892,180.5435)"><path
             d="M 0,0 0.346,0.599 0,1.197 H -0.691 L -1.038,0.599 -0.691,0 Z"
             style="fill:#000000;fill-opacity:1;fill-rule:nonzero;stroke:none"
             id="path386" /></g><g
           id="g388"
           transform="translate(134.2735,180.5435)"><path
             d="M 0,0 0.346,0.599 0,1.197 H -0.691 L -1.037,0.599 -0.691,0 Z"
             style="fill:#000000;fill-opacity:1;fill-rule:nonzero;stroke:none"
             id="path390" /></g><g
           id="g392"
           transform="translate(136.6583,180.5435)"><path
             d="M 0,0 0.346,0.599 0,1.197 H -0.692 L -1.038,0.599 -0.692,0 Z"
             style="fill:#000000;fill-opacity:1;fill-rule:nonzero;stroke:none"
             id="path394" /></g><g
           id="g396"
           transform="translate(139.0426,180.5435)"><path
             d="M 0,0 0.346,0.599 0,1.197 H -0.692 L -1.038,0.599 -0.692,0 Z"
             style="fill:#000000;fill-opacity:1;fill-rule:nonzero;stroke:none"
             id="path398" /></g><g
           id="g400"
           transform="translate(141.4268,180.5435)"><path
             d="M 0,0 0.346,0.599 0,1.197 H -0.691 L -1.038,0.599 -0.691,0 Z"
             style="fill:#000000;fill-opacity:1;fill-rule:nonzero;stroke:none"
             id="path402" /></g><g
           id="g404"
           transform="translate(222.2618,153.567)"><path
             d="M 0,0 V 0.691 L -0.599,1.037 -1.198,0.691 V 0 l 0.599,-0.346 z"
             style="fill:#000000;fill-opacity:1;fill-rule:nonzero;stroke:none"
             id="path406" /></g><g
           id="g408"
           transform="translate(222.2618,151.1822)"><path
             d="M 0,0 V 0.692 L -0.599,1.038 -1.198,0.692 V 0 l 0.599,-0.346 z"
             style="fill:#000000;fill-opacity:1;fill-rule:nonzero;stroke:none"
             id="path410" /></g><g
           id="g412"
           transform="translate(222.2618,148.7984)"><path
             d="M 0,0 V 0.691 L -0.599,1.037 -1.198,0.691 V 0 l 0.599,-0.346 z"
             style="fill:#000000;fill-opacity:1;fill-rule:nonzero;stroke:none"
             id="path414" /></g><g
           id="g416"
           transform="translate(222.2618,146.4136)"><path
             d="M 0,0 V 0.691 L -0.599,1.038 -1.198,0.691 V 0 l 0.599,-0.346 z"
             style="fill:#000000;fill-opacity:1;fill-rule:nonzero;stroke:none"
             id="path418" /></g><g
           id="g420"
           transform="translate(222.2618,144.0298)"><path
             d="M 0,0 V 0.691 L -0.599,1.037 -1.198,0.691 V 0 l 0.599,-0.346 z"
             style="fill:#000000;fill-opacity:1;fill-rule:nonzero;stroke:none"
             id="path422" /></g><g
           id="g424"
           transform="translate(299.6978,225.7486)"><path
             d="M 0,0 V 1.098 L -0.951,1.646 -1.901,1.098 V 0 l 0.95,-0.549 z"
             style="fill:#000000;fill-opacity:1;fill-rule:nonzero;stroke:none"
             id="path426" /></g><g
           id="g428"
           transform="translate(299.6978,221.9644)"><path
             d="M 0,0 V 1.098 L -0.951,1.646 -1.901,1.098 V 0 l 0.95,-0.549 z"
             style="fill:#000000;fill-opacity:1;fill-rule:nonzero;stroke:none"
             id="path430" /></g><g
           id="g432"
           transform="translate(299.6978,218.1802)"><path
             d="M 0,0 V 1.098 L -0.951,1.646 -1.901,1.098 V 0 l 0.95,-0.548 z"
             style="fill:#000000;fill-opacity:1;fill-rule:nonzero;stroke:none"
             id="path434" /></g><g
           id="g436"
           transform="translate(299.6978,214.397)"><path
             d="M 0,0 V 1.098 L -0.951,1.646 -1.901,1.098 V 0 l 0.95,-0.549 z"
             style="fill:#000000;fill-opacity:1;fill-rule:nonzero;stroke:none"
             id="path438" /></g><g
           id="g440"
           transform="translate(299.6978,210.6129)"><path
             d="M 0,0 V 1.098 L -0.951,1.646 -1.901,1.098 V 0 l 0.95,-0.549 z"
             style="fill:#000000;fill-opacity:1;fill-rule:nonzero;stroke:none"
             id="path442" /></g><g
           id="g444"
           transform="translate(201.1051,193.6646)"><path
             d="m 0,0 v -0.691 l 0.599,-0.346 0.599,0.346 V 0 L 0.599,0.347 Z"
             style="fill:#000000;fill-opacity:1;fill-rule:nonzero;stroke:none"
             id="path446" /></g><g
           id="g448"
           transform="translate(201.1051,191.2808)"><path
             d="m 0,0 v -0.691 l 0.599,-0.347 0.599,0.347 V 0 L 0.599,0.346 Z"
             style="fill:#000000;fill-opacity:1;fill-rule:nonzero;stroke:none"
             id="path450" /></g><g
           id="g452"
           transform="translate(201.1051,188.8961)"><path
             d="m 0,0 v -0.691 l 0.599,-0.346 0.599,0.346 V 0 L 0.599,0.346 Z"
             style="fill:#000000;fill-opacity:1;fill-rule:nonzero;stroke:none"
             id="path454" /></g><g
           id="g456"
           transform="translate(201.1051,186.5123)"><path
             d="m 0,0 v -0.692 l 0.599,-0.346 0.599,0.346 V 0 L 0.599,0.346 Z"
             style="fill:#000000;fill-opacity:1;fill-rule:nonzero;stroke:none"
             id="path458" /></g><g
           id="g460"
           transform="translate(201.1051,184.1275)"><path
             d="m 0,0 v -0.691 l 0.599,-0.346 0.599,0.346 V 0 L 0.599,0.346 Z"
             style="fill:#000000;fill-opacity:1;fill-rule:nonzero;stroke:none"
             id="path462" /></g><g
           id="g464"
           transform="translate(166.0323,218.9029)"><path
             d="M 0,0 V 0.691 L -0.599,1.037 -1.198,0.691 V 0 l 0.599,-0.347 z"
             style="fill:#000000;fill-opacity:1;fill-rule:nonzero;stroke:none"
             id="path466" /></g><g
           id="g468"
           transform="translate(166.0323,216.5181)"><path
             d="M 0,0 V 0.691 L -0.599,1.037 -1.198,0.691 V 0 l 0.599,-0.346 z"
             style="fill:#000000;fill-opacity:1;fill-rule:nonzero;stroke:none"
             id="path470" /></g><g
           id="g472"
           transform="translate(166.0323,214.1334)"><path
             d="M 0,0 V 0.692 L -0.599,1.038 -1.198,0.692 V 0 l 0.599,-0.346 z"
             style="fill:#000000;fill-opacity:1;fill-rule:nonzero;stroke:none"
             id="path474" /></g><g
           id="g476"
           transform="translate(166.0323,211.7496)"><path
             d="M 0,0 V 0.691 L -0.599,1.037 -1.198,0.691 V 0 l 0.599,-0.346 z"
             style="fill:#000000;fill-opacity:1;fill-rule:nonzero;stroke:none"
             id="path478" /></g><g
           id="g480"
           transform="translate(166.0323,209.3648)"><path
             d="M 0,0 V 0.691 L -0.599,1.037 -1.198,0.691 V 0 l 0.599,-0.346 z"
             style="fill:#000000;fill-opacity:1;fill-rule:nonzero;stroke:none"
             id="path482" /></g><g
           id="g484"
           transform="translate(319.0777,250.356)"><path
             d="m 0,0 v -0.692 l 0.599,-0.346 0.599,0.346 V 0 L 0.599,0.346 Z"
             style="fill:#000000;fill-opacity:1;fill-rule:nonzero;stroke:none"
             id="path486" /></g><g
           id="g488"
           transform="translate(319.0777,247.9713)"><path
             d="m 0,0 v -0.691 l 0.599,-0.346 0.599,0.346 V 0 L 0.599,0.346 Z"
             style="fill:#000000;fill-opacity:1;fill-rule:nonzero;stroke:none"
             id="path490" /></g><g
           id="g492"
           transform="translate(319.0777,245.5875)"><path
             d="m 0,0 v -0.692 l 0.599,-0.346 0.599,0.346 V 0 L 0.599,0.346 Z"
             style="fill:#000000;fill-opacity:1;fill-rule:nonzero;stroke:none"
             id="path494" /></g><g
           id="g496"
           transform="translate(319.0777,243.2027)"><path
             d="m 0,0 v -0.691 l 0.599,-0.346 0.599,0.346 V 0 L 0.599,0.346 Z"
             style="fill:#000000;fill-opacity:1;fill-rule:nonzero;stroke:none"
             id="path498" /></g><g
           id="g500"
           transform="translate(319.0777,240.8179)"><path
             d="m 0,0 v -0.691 l 0.599,-0.346 0.599,0.346 V 0 L 0.599,0.346 Z"
             style="fill:#000000;fill-opacity:1;fill-rule:nonzero;stroke:none"
             id="path502" /></g><g
           id="g504"
           transform="translate(283.6758,211.9263)"><path
             d="m 0,0 c 0,0.329 -0.267,0.597 -0.596,0.597 h -28.028 c -0.329,0 -0.596,-0.268 -0.596,-0.597 0,-0.329 0.267,-0.597 0.596,-0.597 H -0.596 C -0.267,-0.597 0,-0.329 0,0"
             style="fill:#000000;fill-opacity:1;fill-rule:nonzero;stroke:none"
             id="path506" /></g><g
           id="g508"
           transform="translate(283.6758,186.188)"><path
             d="m 0,0 c 0,0.329 -0.267,0.597 -0.596,0.597 h -28.028 c -0.329,0 -0.596,-0.268 -0.596,-0.597 0,-0.329 0.267,-0.597 0.596,-0.597 H -0.596 C -0.267,-0.597 0,-0.329 0,0"
             style="fill:#000000;fill-opacity:1;fill-rule:nonzero;stroke:none"
             id="path510" /></g><g
           id="g512"
           transform="translate(283.0797,161.0445)"><path
             d="m 0,0 h -28.027 c -0.329,0 -0.597,-0.267 -0.597,-0.597 0,-0.329 0.268,-0.595 0.597,-0.595 H 0 c 0.33,0 0.596,0.266 0.596,0.595 C 0.596,-0.267 0.33,0 0,0"
             style="fill:#000000;fill-opacity:1;fill-rule:nonzero;stroke:none"
             id="path514" /></g><g
           id="g516"
           transform="translate(283.0797,135.3091)"><path
             d="m 0,0 h -28.027 c -0.329,0 -0.597,-0.267 -0.597,-0.597 0,-0.329 0.268,-0.595 0.597,-0.595 H 0 c 0.33,0 0.596,0.266 0.596,0.595 C 0.596,-0.267 0.33,0 0,0"
             style="fill:#000000;fill-opacity:1;fill-rule:nonzero;stroke:none"
             id="path518" /></g><g
           id="g520"
           transform="translate(234.2589,249.9673)"><path
             d="M 0,0 -0.72,-1.248 0,-2.496 H 1.441 L 2.162,-1.248 1.441,0 Z"
             style="fill:#000000;fill-opacity:1;fill-rule:nonzero;stroke:none"
             id="path522" /></g><g
           id="g524"
           transform="translate(238.2574,128.774)"><path
             d="M 0,0 -0.851,-1.473 0,-2.946 H 1.701 L 2.551,-1.473 1.701,0 Z"
             style="fill:#000000;fill-opacity:1;fill-rule:nonzero;stroke:none"
             id="path526" /></g><g
           id="g528"
           transform="translate(232.7711,128.774)"><path
             d="M 0,0 -0.851,-1.473 0,-2.946 H 1.701 L 2.551,-1.473 1.701,0 Z"
             style="fill:#000000;fill-opacity:1;fill-rule:nonzero;stroke:none"
             id="path530" /></g><g
           id="g532"
           transform="translate(324.4268,258.1295)"><path
             d="M 0,0 V 2.081 L -1.802,3.122 -3.604,2.081 V 0 l 1.802,-1.04 z"
             style="fill:#000000;fill-opacity:1;fill-rule:nonzero;stroke:none"
             id="path534" /></g><path
           d="m 553.398,382.156 h -66.857 v 16.393 h 66.857 z"
           style="fill:none;stroke:#000000;stroke-width:2;stroke-linecap:butt;stroke-linejoin:miter;stroke-miterlimit:10;stroke-dasharray:none;stroke-opacity:1"
           id="path536" /><g
           id="g538"
           transform="translate(539.1343,398.5484)"><path
             d="m 0,0 h -38.933 v 8.702 c 0,1.644 1.332,2.977 2.977,2.977 H -2.977 C -1.332,11.679 0,10.346 0,8.702 Z"
             style="fill:none;stroke:#000000;stroke-width:2;stroke-linecap:butt;stroke-linejoin:miter;stroke-miterlimit:10;stroke-dasharray:none;stroke-opacity:1"
             id="path540" /></g><g
           id="g542"
           transform="translate(500.2047,382.1558)"><path
             d="m 0,0 v -10.82 h -1.9 v 3.21 h -2.64 v -3.21 H -6.431 V 0 Z"
             style="fill:none;stroke:#000000;stroke-width:2;stroke-linecap:butt;stroke-linejoin:miter;stroke-miterlimit:10;stroke-dasharray:none;stroke-opacity:1"
             id="path544" /></g><g
           id="g546"
           transform="translate(545.564,382.1558)"><path
             d="m 0,0 v -10.82 h -1.89 v 3.21 h -2.65 v -3.21 H -6.43 V 0 Z"
             style="fill:none;stroke:#000000;stroke-width:2;stroke-linecap:butt;stroke-linejoin:miter;stroke-miterlimit:10;stroke-dasharray:none;stroke-opacity:1"
             id="path548" /></g><path
           d="M 621.694,114.116 H 512.995 l 0.0835,70.70188 h 108.53196 z"
           style="fill:none;stroke:#000000;stroke-width:1.315;stroke-linecap:butt;stroke-linejoin:miter;stroke-miterlimit:10;stroke-dasharray:none;stroke-opacity:1"
           id="path550"
           sodipodi:nodetypes="ccccc" /><path
           d="M 625.604,184.877 H 509.76 v 4.646 h 115.844 z"
           style="fill:none;stroke:#000000;stroke-width:1.315;stroke-linecap:butt;stroke-linejoin:miter;stroke-miterlimit:10;stroke-dasharray:none;stroke-opacity:1"
           id="path552" /><path
           d="m 598.718,189.56006 -63.82248,0.25055 -0.0835,7.80839 h 63.906 z"
           style="fill:none;stroke:#000000;stroke-width:1.315;stroke-linecap:butt;stroke-linejoin:miter;stroke-miterlimit:10;stroke-dasharray:none;stroke-opacity:1"
           id="path554"
           sodipodi:nodetypes="ccccc" /><path
           d="M 616.90448,189.64358 H 608.155 v 8.57842 h 8.833 z"
           style="fill:none;stroke:#000000;stroke-width:1.315;stroke-linecap:butt;stroke-linejoin:miter;stroke-miterlimit:10;stroke-dasharray:none;stroke-opacity:1"
           id="path556"
           sodipodi:nodetypes="ccccc" /><path
           d="m 614.888,198.222 h -4.634 v 7.096 h 4.634 z"
           style="fill:none;stroke:#000000;stroke-width:1.315;stroke-linecap:butt;stroke-linejoin:miter;stroke-miterlimit:10;stroke-dasharray:none;stroke-opacity:1"
           id="path558" /><g
           id="g560"
           transform="translate(618.4361,205.5103)"><path
             d="m 0,0 c 0,-3.238 -2.626,-5.864 -5.865,-5.864 -3.239,0 -5.864,2.626 -5.864,5.864 0,3.239 2.625,5.865 5.864,5.865 C -2.626,5.865 0,3.239 0,0 Z"
             style="fill:none;stroke:#000000;stroke-width:1.315;stroke-linecap:butt;stroke-linejoin:miter;stroke-miterlimit:10;stroke-dasharray:none;stroke-opacity:1"
             id="path562" /></g><g
           id="g564"
           transform="translate(609.2886,210.3716)"><path
             d="m 0,0 -0.25,15.99 c -0.002,0.074 0.105,0.087 0.121,0.015 L 1.738,7.761 c 0,0 1.014,1.207 2.558,0 0.483,2.268 1.545,11.198 1.545,11.198 H 6.999 V -0.455"
             style="fill:none;stroke:#000000;stroke-width:1.315;stroke-linecap:butt;stroke-linejoin:miter;stroke-miterlimit:10;stroke-dasharray:none;stroke-opacity:1"
             id="path566" /></g><g
           id="g568"
           transform="translate(613.5123,214.8746)"><path
             d="m 0,0 c 0,-0.979 -0.511,-1.773 -1.14,-1.773 -0.63,0 -1.14,0.794 -1.14,1.773 0,0.979 0.51,1.774 1.14,1.774 C -0.511,1.774 0,0.979 0,0 Z"
             style="fill:none;stroke:#000000;stroke-width:1.315;stroke-linecap:butt;stroke-linejoin:miter;stroke-miterlimit:10;stroke-dasharray:none;stroke-opacity:1"
             id="path570" /></g><path
           d="m 526.503,189.81061 h -8.833 v 8.41139 h 8.833 z"
           style="fill:none;stroke:#000000;stroke-width:1.315;stroke-linecap:butt;stroke-linejoin:miter;stroke-miterlimit:10;stroke-dasharray:none;stroke-opacity:1"
           id="path572"
           sodipodi:nodetypes="ccccc" /><path
           d="m 524.603,198.222 h -4.634 v 7.096 h 4.634 z"
           style="fill:none;stroke:#000000;stroke-width:1.315;stroke-linecap:butt;stroke-linejoin:miter;stroke-miterlimit:10;stroke-dasharray:none;stroke-opacity:1"
           id="path574" /><g
           id="g576"
           transform="translate(528.1509,205.5103)"><path
             d="m 0,0 c 0,-3.238 -2.626,-5.864 -5.864,-5.864 -3.24,0 -5.865,2.626 -5.865,5.864 0,3.239 2.625,5.865 5.865,5.865 C -2.626,5.865 0,3.239 0,0 Z"
             style="fill:none;stroke:#000000;stroke-width:1.315;stroke-linecap:butt;stroke-linejoin:miter;stroke-miterlimit:10;stroke-dasharray:none;stroke-opacity:1"
             id="path578" /></g><g
           id="g580"
           transform="translate(519.0045,210.3716)"><path
             d="m 0,0 -0.251,15.99 c -0.001,0.074 0.105,0.087 0.122,0.015 L 1.737,7.761 c 0,0 1.014,1.207 2.559,0 0.482,2.268 1.544,11.198 1.544,11.198 H 6.998 V -0.455"
             style="fill:none;stroke:#000000;stroke-width:1.315;stroke-linecap:butt;stroke-linejoin:miter;stroke-miterlimit:10;stroke-dasharray:none;stroke-opacity:1"
             id="path582" /></g><g
           id="g584"
           transform="translate(523.2271,214.8746)"><path
             d="m 0,0 c 0,-0.979 -0.51,-1.773 -1.14,-1.773 -0.63,0 -1.14,0.794 -1.14,1.773 0,0.979 0.51,1.774 1.14,1.774 C -0.51,1.774 0,0.979 0,0 Z"
             style="fill:none;stroke:#000000;stroke-width:1.315;stroke-linecap:butt;stroke-linejoin:miter;stroke-miterlimit:10;stroke-dasharray:none;stroke-opacity:1"
             id="path586" /></g><g
           id="g588"
           transform="translate(611.6705,177.4429)"><path
             d="M 0,0 V -7.529"
             style="fill:none;stroke:#000000;stroke-width:1.802;stroke-linecap:butt;stroke-linejoin:miter;stroke-miterlimit:10;stroke-dasharray:none;stroke-opacity:1"
             id="path590" /></g><g
           id="g592"
           transform="translate(607.7603,173.6783)"><path
             d="M 0,0 H 7.53"
             style="fill:none;stroke:#000000;stroke-width:1.802;stroke-linecap:butt;stroke-linejoin:miter;stroke-miterlimit:10;stroke-dasharray:none;stroke-opacity:1"
             id="path594" /></g><g
           id="g596"
           transform="translate(519.7486,173.6783)"><path
             d="M 0,0 H 7.529"
             style="fill:none;stroke:#000000;stroke-width:1.802;stroke-linecap:butt;stroke-linejoin:miter;stroke-miterlimit:10;stroke-dasharray:none;stroke-opacity:1"
             id="path598" /></g><g
           id="g600"
           transform="translate(566.3511,167.6285)"><path
             d="M 0,0 H 9.611 L 0,-15.43 h 9.611 l -14.268,-23.088 5.809,18.921 h -8.39 z"
             style="fill:none;stroke:#000000;stroke-width:1.802;stroke-linecap:butt;stroke-linejoin:miter;stroke-miterlimit:10;stroke-dasharray:none;stroke-opacity:1"
             id="path602" /></g><g
           id="g606"
           transform="translate(209.0679,510.1373)"><path
             d="M 0,0 -70.332,-55.286"
             style="fill:none;stroke:#000000;stroke-width:0.75;stroke-linecap:butt;stroke-linejoin:miter;stroke-miterlimit:10;stroke-dasharray:none;stroke-opacity:1"
             id="path608" /></g><g
           id="g610"
           transform="translate(206.8746,484.8516)"><path
             d="M 0,0 -46.71,-37.714"
             style="fill:none;stroke:#000000;stroke-width:0.75;stroke-linecap:butt;stroke-linejoin:miter;stroke-miterlimit:10;stroke-dasharray:none;stroke-opacity:1"
             id="path612" /></g><g
           id="g614"
           transform="translate(225.7359,482.4942)"><path
             d="M 0,0 -72,-59.357"
             style="fill:none;stroke:#000000;stroke-width:0.75;stroke-linecap:butt;stroke-linejoin:miter;stroke-miterlimit:10;stroke-dasharray:none;stroke-opacity:1"
             id="path616" /></g><text
           xml:space="preserve"
           transform="matrix(0.75000002,0,0,-0.75000002,13.362613,553.84992)"
           id="text11483"
           style="font-style:italic;font-weight:bold;font-size:20px;line-height:1.25;font-family:'Roboto Slab';white-space:pre;shape-inside:url(#rect11485);fill:#000000;fill-opacity:1;stroke:none"><tspan
             x="405.33203"
             y="119.94705"
             id="tspan118377">e-ink skjerm</tspan></text><text
           xml:space="preserve"
           transform="matrix(0.75000002,0,0,-0.75000002,275.92666,476.10091)"
           id="text11483-2"
           style="font-style:italic;font-weight:bold;font-size:20px;line-height:1.25;font-family:'Roboto Slab';white-space:pre;shape-inside:url(#rect11485-7);fill:#000000;fill-opacity:1;stroke:none"><tspan
             x="405.33203"
             y="119.94705"
             id="tspan118379">trykknapp</tspan></text><text
           xml:space="preserve"
           transform="matrix(0.75000002,0,0,-0.75000002,344.77326,236.91377)"
           id="text11483-2-4"
           style="font-style:italic;font-weight:bold;font-size:20px;line-height:1.25;font-family:'Roboto Slab';white-space:pre;shape-inside:url(#rect11485-7-4);fill:#000000;fill-opacity:1;stroke:none"><tspan
             x="405.33203"
             y="119.94705"
             id="tspan118381">batteri</tspan></text><text
           xml:space="preserve"
           transform="matrix(0.75000002,0,0,-0.75000002,-153.15462,173.24025)"
           id="text11483-2-4-8"
           style="font-style:italic;font-weight:bold;font-size:20px;line-height:1.25;font-family:'Roboto Slab';white-space:pre;shape-inside:url(#rect11485-7-4-2);fill:#000000;fill-opacity:1;stroke:none"><tspan
             x="405.33203"
             y="119.94705"
             id="tspan118383">asynkron krets</tspan></text><text
           xml:space="preserve"
           transform="matrix(0.75000002,0,0,-0.75000002,0,595.27402)"
           id="text63881"
           style="font-style:normal;font-weight:normal;font-size:40px;line-height:1.25;font-family:sans-serif;white-space:pre;shape-inside:url(#rect63883);fill:#000000;fill-opacity:1;stroke:none" /><text
           xml:space="preserve"
           style="font-style:italic;font-weight:bold;font-size:20px;line-height:1.25;font-family:'Roboto Slab';white-space:pre;shape-inside:url(#rect11485);fill:#000000;fill-opacity:1;stroke:none"
           x="567.91107"
           y="-381.47223"
           id="text69371"
           transform="scale(1,-1)"><tspan
             x="405.33203"
             y="119.94705"
             id="tspan118387"><tspan
               style="stroke-width:0.75"
               id="tspan118385">trykknapp</tspan></tspan></text></g></g></g></svg>
