<?xml version="1.0" standalone="no"?>
<!DOCTYPE svg PUBLIC "-//W3C//DTD SVG 20010904//EN"
 "http://www.w3.org/TR/2001/REC-SVG-20010904/DTD/svg10.dtd">
<svg version="1.0" xmlns="http://www.w3.org/2000/svg"
 width="1600.000000pt" height="1600.000000pt" viewBox="0 0 1600.000000 1600.000000"
 preserveAspectRatio="xMidYMid meet">
<metadata>
Created by potrace 1.14, written by Peter Selinger 2001-2017
</metadata>
<g transform="translate(0.000000,1600.000000) scale(0.100000,-0.100000)"
fill="#000000" stroke="none">
<path d="M0 8000 l0 -8000 8000 0 8000 0 0 8000 0 8000 -8000 0 -8000 0 0
-8000z m2787 -2807 c79 -37 97 -142 35 -206 l-31 -32 154 -393 c85 -217 157
-402 160 -413 6 -17 1 -19 -48 -19 l-54 0 -53 135 -52 135 -177 0 -176 0 -50
-133 -50 -132 -53 -3 c-28 -2 -52 1 -52 6 0 5 72 191 159 413 l160 404 -24 20
c-33 28 -45 57 -45 108 0 97 103 155 197 110z m768 -193 c92 -15 163 -56 200
-114 27 -45 30 -57 30 -135 0 -69 -5 -94 -22 -126 -56 -104 -168 -155 -343
-155 l-80 0 0 -170 0 -170 -55 0 -55 0 0 440 0 440 133 0 c72 0 159 -4 192
-10z m905 -40 l0 -50 -195 0 -196 0 3 -137 3 -138 183 -3 182 -2 0 -45 0 -45
-185 0 -185 0 0 -160 0 -160 195 0 195 0 0 -45 0 -45 -245 0 -245 0 0 440 0
440 245 0 245 0 0 -50z m544 -315 c131 -201 239 -365 240 -365 0 0 0 164 -2
365 l-2 365 50 0 50 0 0 -440 0 -440 -62 0 -63 0 -234 360 c-128 198 -234 360
-235 360 0 0 1 -162 2 -360 l4 -360 -51 0 -51 0 0 440 0 440 58 0 59 0 237
-365z m678 150 l3 -214 195 214 195 215 58 0 c31 0 57 -3 57 -7 0 -5 -77 -91
-170 -192 -94 -101 -170 -185 -170 -188 0 -3 77 -109 307 -420 l54 -73 -63 0
-63 0 -159 211 -158 211 -44 -43 -44 -43 0 -168 0 -168 -55 0 -55 0 0 433 c0
239 3 437 7 440 3 4 28 7 54 7 l49 0 2 -215z m748 -225 l0 -440 -50 0 -50 0 0
440 0 440 50 0 50 0 0 -440z m342 48 l3 -393 193 -3 192 -2 0 -45 0 -45 -245
0 -245 0 0 440 0 440 50 0 50 0 2 -392z m898 381 c135 -22 244 -100 296 -213
80 -174 42 -432 -80 -544 -98 -90 -179 -112 -413 -112 l-173 0 0 433 c0 239 3
437 7 440 10 11 292 8 363 -4z m1020 -39 l0 -50 -195 0 -196 0 3 -137 3 -138
183 -3 182 -2 0 -45 0 -45 -185 0 -185 0 0 -160 0 -160 195 0 195 0 0 -45 0
-45 -245 0 -245 0 0 440 0 440 245 0 245 0 0 -50z m-5775 -1625 c167 -43 268
-188 282 -405 16 -266 -120 -456 -347 -485 -106 -13 -234 26 -306 92 -162 151
-180 499 -34 683 85 107 251 154 405 115z m3153 -10 c63 -18 74 -31 53 -65 -8
-12 -17 -12 -65 3 -130 41 -262 29 -318 -30 -57 -60 -57 -162 -1 -215 36 -33
57 -43 174 -88 128 -48 184 -83 217 -132 23 -36 27 -52 27 -113 0 -62 -4 -78
-30 -121 -25 -39 -44 -56 -99 -84 -68 -34 -71 -35 -185 -34 -78 0 -135 6 -173
18 -54 15 -58 19 -58 46 0 35 -4 34 73 14 85 -22 257 -16 310 10 62 31 92 79
92 147 0 42 -5 65 -21 86 -23 32 -111 79 -232 124 -147 55 -205 120 -205 228
0 111 68 190 190 221 53 13 177 6 251 -15z m730 11 c177 -47 282 -210 282
-436 0 -250 -116 -413 -320 -450 -179 -32 -346 50 -418 207 -77 168 -63 400
33 539 87 125 261 183 423 140z m2629 -11 c29 -8 55 -20 58 -25 5 -7 -7 -41
-19 -57 -1 -2 -27 7 -57 19 -72 28 -203 30 -276 5 -69 -24 -145 -94 -177 -162
-72 -151 -50 -387 47 -500 14 -17 49 -44 79 -60 51 -29 58 -30 178 -30 69 0
142 4 163 8 36 8 37 7 37 -22 0 -28 -3 -30 -57 -42 -94 -21 -248 -16 -315 10
-151 58 -233 190 -245 391 -14 250 108 436 317 480 60 12 203 5 267 -15z
m-5733 5 c84 -12 156 -50 190 -99 65 -95 54 -246 -26 -328 -56 -58 -116 -76
-265 -81 l-133 -4 0 -179 0 -179 -35 0 -35 0 0 433 c0 239 3 437 7 440 10 10
219 8 297 -3z m901 -25 l0 -30 -207 -3 -208 -2 0 -160 0 -160 195 0 195 0 0
-30 0 -30 -195 0 -195 0 0 -185 0 -185 208 -2 207 -3 3 -27 3 -28 -245 0 -246
0 0 433 c0 239 3 437 7 441 4 3 113 5 242 4 l236 -3 0 -30z m506 -342 c138
-208 254 -381 258 -385 3 -4 6 165 6 375 l0 382 30 0 30 0 3 -437 2 -438 -35
0 c-35 0 -35 0 -286 378 -138 207 -254 380 -258 384 -3 4 -5 -166 -3 -377 l2
-385 -30 0 -30 0 0 440 0 440 30 0 c28 0 44 -21 281 -377z m2231 50 c3 -320 4
-329 26 -375 26 -53 69 -93 122 -116 45 -19 173 -21 223 -3 50 17 103 64 130
115 21 39 22 54 25 374 l3 333 32 -3 32 -3 0 -320 c0 -377 -3 -395 -89 -481
-66 -66 -129 -88 -246 -87 -116 0 -183 26 -244 95 -73 80 -76 100 -76 475 l0
323 29 0 30 0 3 -327z m1198 302 c138 -43 200 -194 136 -332 -23 -49 -91 -113
-120 -113 -6 0 -17 -4 -25 -9 -12 -8 0 -33 59 -133 41 -68 93 -156 117 -195
l43 -73 -40 0 -39 0 -113 190 -113 191 -105 -3 -105 -3 -3 -187 -2 -188 -30 0
-30 0 0 441 0 442 158 -6 c105 -4 175 -11 212 -22z m1600 -10 l0 -35 -210 0
-210 0 0 -160 0 -160 200 0 200 0 0 -30 0 -30 -197 -2 -198 -3 -3 -182 -2
-183 210 0 210 0 0 -30 0 -30 -240 0 -240 0 0 440 0 440 240 0 240 0 0 -35z"/>
<path d="M2672 5128 c-17 -17 -15 -84 4 -102 22 -22 70 -20 94 4 25 25 26 72
2 93 -22 20 -83 22 -100 5z"/>
<path d="M2716 4855 c-4 -17 -34 -101 -67 -188 -32 -87 -59 -160 -59 -162 0
-3 61 -5 136 -5 105 0 135 3 131 13 -26 70 -117 319 -124 342 l-10 30 -7 -30z"/>
<path d="M3340 4735 l0 -178 103 7 c114 7 176 30 211 79 30 41 30 154 0 194
-41 54 -78 68 -201 72 l-113 3 0 -177z"/>
<path d="M7410 4565 l0 -348 123 5 c106 4 130 8 183 32 73 33 115 73 146 141
20 44 23 66 23 175 0 109 -3 131 -23 176 -29 63 -72 106 -137 136 -42 19 -71
23 -182 26 l-133 4 0 -347z"/>
<path d="M2700 3271 c-75 -23 -147 -89 -181 -165 -65 -149 -40 -395 52 -500
61 -69 106 -89 214 -94 120 -5 185 18 249 90 123 136 122 466 -1 593 -59 61
-123 85 -223 84 -47 0 -96 -4 -110 -8z"/>
<path d="M6580 3271 c-155 -47 -237 -227 -209 -456 26 -212 139 -313 338 -303
96 5 146 25 202 80 141 142 125 524 -28 631 -24 18 -59 37 -76 44 -36 13 -188
15 -227 4z"/>
<path d="M3460 3082 l0 -202 114 0 c205 0 276 50 276 195 0 148 -57 190 -272
202 l-118 6 0 -201z"/>
<path d="M8224 3267 c-2 -7 -3 -94 -2 -192 l3 -180 118 1 c132 2 187 17 229
62 76 82 57 238 -34 285 -66 33 -303 52 -314 24z"/>
</g>
</svg>
