<?xml version="1.0" encoding="UTF-8" standalone="no"?>
<svg
   width="1000"
   height="1000"
   viewBox="-1 -1 27 27"
   shape-rendering="crispEdges"
   id="qr code"
   version="1.1"
   sodipodi:docname="åk.svg"
   inkscape:version="1.1.2 (0a00cf5339, 2022-02-04)"
   xmlns:inkscape="http://www.inkscape.org/namespaces/inkscape"
   xmlns:sodipodi="http://sodipodi.sourceforge.net/DTD/sodipodi-0.dtd"
   xmlns="http://www.w3.org/2000/svg"
   xmlns:svg="http://www.w3.org/2000/svg">
  <defs
     id="defs8" />
  <sodipodi:namedview
     id="namedview6"
     pagecolor="#ffffff"
     bordercolor="#666666"
     borderopacity="1.0"
     inkscape:pageshadow="2"
     inkscape:pageopacity="0.0"
     inkscape:pagecheckerboard="0"
     showgrid="false"
     inkscape:zoom="0.63"
     inkscape:cx="499.20635"
     inkscape:cy="500"
     inkscape:window-width="2560"
     inkscape:window-height="1367"
     inkscape:window-x="0"
     inkscape:window-y="0"
     inkscape:window-maximized="1"
     inkscape:current-layer="qr code" />
  <rect
     id="qr background"
     fill-opacity="1"
     fill="#ffffff"
     x="9.6076988e-16"
     y="8.8817842e-16"
     width="25"
     height="25"
     style="stroke-width:0.925926" />
  <path
     fill-opacity="1"
     fill="rgb(0, 0, 0)"
     id="qr dark pixels"
     fill-rule="evenodd"
     d="M 9 0 L 12 0 L 12 1 L 10 1 L 10 3 L 9 3 L 9 2 L 8 2 L 8 1 L 9 1 z M 13 0 L 14 0 L 14 2 L 13 2 z M 16 0 L 17 0 L 17 1 L 16 1 z M 15 1 L 16 1 L 16 2 L 15 2 z M 12 2 L 13 2 L 13 3 L 14 3 L 14 2 L 15 2 L 15 4 L 14 4 L 14 5 L 13 5 L 13 4 L 12 4 L 12 5 L 10 5 L 10 6 L 9 6 L 9 7 L 8 7 L 8 5 L 9 5 L 9 4 L 10 4 L 10 3 L 12 3 z M 16 2 L 17 2 L 17 3 L 16 3 z M 8 3 L 9 3 L 9 4 L 8 4 z M 16 4 L 17 4 L 17 8 L 16 8 L 16 9 L 14 9 L 14 10 L 13 10 L 13 8 L 14 8 L 14 6 L 15 6 L 15 7 L 16 7 L 16 6 L 15 6 L 15 5 L 16 5 z M 12 5 L 13 5 L 13 7 L 12 7 z M 10 6 L 11 6 L 11 7 L 10 7 z M 9 7 L 10 7 L 10 8 L 9 8 z M 11 7 L 12 7 L 12 8 L 11 8 z M 0 8 L 5 8 L 5 11 L 4 11 L 4 10 L 3 10 L 3 9 L 1 9 L 1 10 L 0 10 z M 6 8 L 9 8 L 9 9 L 10 9 L 10 8 L 11 8 L 11 9 L 12 9 L 12 10 L 9 10 L 9 11 L 8 11 L 8 15 L 6 15 L 6 14 L 7 14 L 7 13 L 5 13 L 5 15 L 4 15 L 4 13 L 2 13 L 2 14 L 1 14 L 1 17 L 0 17 L 0 12 L 3 12 L 3 11 L 4 11 L 4 12 L 7 12 L 7 11 L 6 11 L 6 10 L 7 10 L 7 9 L 6 9 z M 17 8 L 18 8 L 18 10 L 19 10 L 19 8 L 20 8 L 20 10 L 22 10 L 22 11 L 20 11 L 20 12 L 21 12 L 21 13 L 20 13 L 20 14 L 21 14 L 21 13 L 22 13 L 22 15 L 21 15 L 21 16 L 19 16 L 19 15 L 18 15 L 18 16 L 16 16 L 16 18 L 15 18 L 15 17 L 12 17 L 12 16 L 15 16 L 15 15 L 14 15 L 14 14 L 16 14 L 16 13 L 13 13 L 13 14 L 11 14 L 11 12 L 10 12 L 10 13 L 9 13 L 9 11 L 12 11 L 12 12 L 15 12 L 15 11 L 14 11 L 14 10 L 16 10 L 16 12 L 17 12 L 17 10 L 16 10 L 16 9 L 17 9 zM 18 11 L 19 11 L 19 12 L 18 12 z M 18 13 L 19 13 L 19 14 L 18 14 z M 21 8 L 22 8 L 22 9 L 21 9 z M 23 8 L 24 8 L 24 10 L 25 10 L 25 13 L 24 13 L 24 14 L 25 14 L 25 16 L 24 16 L 24 15 L 23 15 L 23 13 L 22 13 L 22 12 L 24 12 L 24 11 L 23 11 z M 1 10 L 2 10 L 2 11 L 1 11 z M 2 14 L 3 14 L 3 15 L 2 15 z M 9 14 L 10 14 L 10 15 L 9 15 z M 3 15 L 4 15 L 4 17 L 2 17 L 2 16 L 3 16 z M 8 15 L 9 15 L 9 16 L 8 16 z M 10 15 L 12 15 L 12 16 L 11 16 L 11 17 L 10 17 L 10 18 L 11 18 L 11 19 L 10 19 L 10 20 L 9 20 L 9 19 L 8 19 L 8 17 L 9 17 L 9 16 L 10 16 z M 6 16 L 7 16 L 7 17 L 6 17 z M 22 16 L 23 16 L 23 17 L 22 17 z M 11 17 L 12 17 L 12 18 L 11 18 z M 21 17 L 22 17 L 22 18 L 21 18 z M 12 18 L 13 18 L 13 20 L 11 20 L 11 19 L 12 19 z M 14 18 L 15 18 L 15 19 L 16 19 L 16 20 L 14 20 z M 22 18 L 25 18 L 25 21 L 24 21 L 24 19 L 22 19 z M 21 19 L 22 19 L 22 20 L 21 20 z M 8 20 L 9 20 L 9 22 L 10 22 L 10 21 L 12 21 L 12 22 L 11 22 L 11 23 L 12 23 L 12 24 L 15 24 L 15 25 L 11 25 L 11 24 L 10 24 L 10 23 L 9 23 L 9 24 L 10 24 L 10 25 L 8 25 z M 13 20 L 14 20 L 14 22 L 16 22 L 16 24 L 15 24 L 15 23 L 13 23 z M 22 20 L 23 20 L 23 23 L 22 23 L 22 24 L 24 24 L 24 22 L 25 22 L 25 25 L 19 25 L 19 23 L 21 23 L 21 22 L 20 22 L 20 21 L 22 21 z M 16 21 L 17 21 L 17 22 L 16 22 z M 18 21 L 19 21 L 19 22 L 18 22 z M 17 23 L 18 23 L 18 24 L 17 24 z M 16 24 L 17 24 L 17 25 L 16 25 z" />
  <path
     id="qr squares"
     d="m -1.0416667,-1.0850695 h 7.5954862 v 0 0 7.5954862 0 0 h -7.5954862 v 0 0 -7.5954862 z M 0.04340279,0 H 5.4687501 v 0 0 5.4253472 0 0 H 0.04340279 v 0 0 z M 1.1284723,1.0850694 h 3.2552084 v 0 0 3.2552083 0 0 H 1.1284723 v 0 0 z M 18.489583,-1.0850695 h 7.595487 v 0 0 7.5954862 0 0 h -7.595487 v 0 0 z M 19.574653,0 H 25 v 0 0 5.4253472 0 0 h -5.425347 v 0 0 z m 1.08507,1.0850694 h 3.255208 v 0 0 3.2552083 0 0 h -3.255208 v 0 0 z M -1.0416667,18.446181 h 7.5954862 v 0 0 7.595486 0 0 h -7.5954862 v 0 0 z M 0.04340279,19.53125 H 5.4687501 v 0 0 5.425347 0 0 H 0.04340279 v 0 0 z m 1.08506951,1.085069 h 3.2552084 v 0 0 3.255208 0 0 H 1.1284723 v 0 0 z M 16.319445,16.276042 h 5.425347 v 0 0 5.425347 0 0 h -5.425347 v 0 0 z m 1.085069,1.085069 h 3.255209 v 0 0 3.255208 0 0 h -3.255209 v 0 0 z m 1.085069,1.08507 h 1.08507 v 0 0 1.085069 0 0 h -1.08507 v 0 0 z"
     fill-rule="evenodd"
     fill-opacity="1"
     fill="#000000"
     style="stroke-width:1.08507" />
</svg>
